%YAML 1.1
%TAG !u! tag:unity3d.com,2011:
--- !u!1045 &1
EditorBuildSettings:
  m_ObjectHideFlags: 0
  serializedVersion: 2
  m_Scenes:
  - enabled: 1
    path: Assets/Scenes/Game.unity
    guid: 74f90b20f8f4dc64a85ececbc2eb2ab9
  - enabled: 0
    path: Assets/Scenes/test.unity
    guid: 8ead744742cb18b4e859d69e064bbd1f
  m_configObjects: {}
