%YAML 1.1
%TAG !u! tag:unity3d.com,2011:
--- !u!29 &1
OcclusionCullingSettings:
  m_ObjectHideFlags: 0
  serializedVersion: 2
  m_OcclusionBakeSettings:
    smallestOccluder: 5
    smallestHole: 0.25
    backfaceThreshold: 100
  m_SceneGUID: 00000000000000000000000000000000
  m_OcclusionCullingData: {fileID: 0}
--- !u!104 &2
RenderSettings:
  m_ObjectHideFlags: 0
  serializedVersion: 9
  m_Fog: 0
  m_FogColor: {r: 0.5, g: 0.5, b: 0.5, a: 1}
  m_FogMode: 3
  m_FogDensity: 0.01
  m_LinearFogStart: 0
  m_LinearFogEnd: 300
  m_AmbientSkyColor: {r: 0.212, g: 0.227, b: 0.259, a: 1}
  m_AmbientEquatorColor: {r: 0.114, g: 0.125, b: 0.133, a: 1}
  m_AmbientGroundColor: {r: 0.047, g: 0.043, b: 0.035, a: 1}
  m_AmbientIntensity: 1
  m_AmbientMode: 0
  m_SubtractiveShadowColor: {r: 0.42, g: 0.478, b: 0.627, a: 1}
  m_SkyboxMaterial: {fileID: 10304, guid: 0000000000000000f000000000000000, type: 0}
  m_HaloStrength: 0.5
  m_FlareStrength: 1
  m_FlareFadeSpeed: 3
  m_HaloTexture: {fileID: 0}
  m_SpotCookie: {fileID: 10001, guid: 0000000000000000e000000000000000, type: 0}
  m_DefaultReflectionMode: 0
  m_DefaultReflectionResolution: 128
  m_ReflectionBounces: 1
  m_ReflectionIntensity: 1
  m_CustomReflection: {fileID: 0}
  m_Sun: {fileID: 0}
  m_IndirectSpecularColor: {r: 0, g: 0, b: 0, a: 1}
  m_UseRadianceAmbientProbe: 0
--- !u!157 &3
LightmapSettings:
  m_ObjectHideFlags: 0
  serializedVersion: 11
  m_GIWorkflowMode: 0
  m_GISettings:
    serializedVersion: 2
    m_BounceScale: 1
    m_IndirectOutputScale: 1
    m_AlbedoBoost: 1
    m_EnvironmentLightingMode: 0
    m_EnableBakedLightmaps: 1
    m_EnableRealtimeLightmaps: 1
  m_LightmapEditorSettings:
    serializedVersion: 12
    m_Resolution: 2
    m_BakeResolution: 40
    m_AtlasSize: 1024
    m_AO: 0
    m_AOMaxDistance: 1
    m_CompAOExponent: 1
    m_CompAOExponentDirect: 0
    m_ExtractAmbientOcclusion: 0
    m_Padding: 2
    m_LightmapParameters: {fileID: 0}
    m_LightmapsBakeMode: 1
    m_TextureCompression: 1
    m_FinalGather: 0
    m_FinalGatherFiltering: 1
    m_FinalGatherRayCount: 256
    m_ReflectionCompression: 2
    m_MixedBakeMode: 2
    m_BakeBackend: 0
    m_PVRSampling: 1
    m_PVRDirectSampleCount: 32
    m_PVRSampleCount: 500
    m_PVRBounces: 2
    m_PVREnvironmentSampleCount: 500
    m_PVREnvironmentReferencePointCount: 2048
    m_PVRFilteringMode: 2
    m_PVRDenoiserTypeDirect: 0
    m_PVRDenoiserTypeIndirect: 0
    m_PVRDenoiserTypeAO: 0
    m_PVRFilterTypeDirect: 0
    m_PVRFilterTypeIndirect: 0
    m_PVRFilterTypeAO: 0
    m_PVREnvironmentMIS: 0
    m_PVRCulling: 1
    m_PVRFilteringGaussRadiusDirect: 1
    m_PVRFilteringGaussRadiusIndirect: 5
    m_PVRFilteringGaussRadiusAO: 2
    m_PVRFilteringAtrousPositionSigmaDirect: 0.5
    m_PVRFilteringAtrousPositionSigmaIndirect: 2
    m_PVRFilteringAtrousPositionSigmaAO: 1
    m_ExportTrainingData: 0
    m_TrainingDataDestination: TrainingData
  m_LightingDataAsset: {fileID: 0}
  m_UseShadowmask: 1
--- !u!196 &4
NavMeshSettings:
  serializedVersion: 2
  m_ObjectHideFlags: 0
  m_BuildSettings:
    serializedVersion: 2
    agentTypeID: 0
    agentRadius: 0.5
    agentHeight: 2
    agentSlope: 45
    agentClimb: 0.4
    ledgeDropHeight: 0
    maxJumpAcrossDistance: 0
    minRegionArea: 2
    manualCellSize: 0
    cellSize: 0.16666667
    manualTileSize: 0
    tileSize: 256
    accuratePlacement: 0
    debug:
      m_Flags: 0
  m_NavMeshData: {fileID: 0}
--- !u!1001 &109302979
PrefabInstance:
  m_ObjectHideFlags: 0
  serializedVersion: 2
  m_Modification:
    m_TransformParent: {fileID: 0}
    m_Modifications:
    - target: {fileID: 1855387528551536, guid: e6f1e13343ea0f146a6a6b594ccf664b, type: 3}
      propertyPath: m_IsActive
      value: 1
      objectReference: {fileID: 0}
    - target: {fileID: 4533887974742044, guid: e6f1e13343ea0f146a6a6b594ccf664b, type: 3}
      propertyPath: m_LocalPosition.x
      value: -13.031
      objectReference: {fileID: 0}
    - target: {fileID: 4533887974742044, guid: e6f1e13343ea0f146a6a6b594ccf664b, type: 3}
      propertyPath: m_LocalPosition.y
      value: 0
      objectReference: {fileID: 0}
    - target: {fileID: 4533887974742044, guid: e6f1e13343ea0f146a6a6b594ccf664b, type: 3}
      propertyPath: m_LocalPosition.z
      value: 0
      objectReference: {fileID: 0}
    - target: {fileID: 4533887974742044, guid: e6f1e13343ea0f146a6a6b594ccf664b, type: 3}
      propertyPath: m_LocalRotation.x
      value: 0
      objectReference: {fileID: 0}
    - target: {fileID: 4533887974742044, guid: e6f1e13343ea0f146a6a6b594ccf664b, type: 3}
      propertyPath: m_LocalRotation.y
      value: 0
      objectReference: {fileID: 0}
    - target: {fileID: 4533887974742044, guid: e6f1e13343ea0f146a6a6b594ccf664b, type: 3}
      propertyPath: m_LocalRotation.z
      value: 0
      objectReference: {fileID: 0}
    - target: {fileID: 4533887974742044, guid: e6f1e13343ea0f146a6a6b594ccf664b, type: 3}
      propertyPath: m_LocalRotation.w
      value: 1
      objectReference: {fileID: 0}
    - target: {fileID: 4533887974742044, guid: e6f1e13343ea0f146a6a6b594ccf664b, type: 3}
      propertyPath: m_RootOrder
      value: 15
      objectReference: {fileID: 0}
    - target: {fileID: 95856853640420074, guid: e6f1e13343ea0f146a6a6b594ccf664b,
        type: 3}
      propertyPath: m_Controller
      value: 
      objectReference: {fileID: 9100000, guid: 9119d78ff9999894fb1221a724e0ac54, type: 2}
    - target: {fileID: 137354719808715874, guid: e6f1e13343ea0f146a6a6b594ccf664b,
        type: 3}
      propertyPath: m_Materials.Array.data[0]
      value: 
      objectReference: {fileID: 2100000, guid: 878738044afee624a879602d5c3ec8e8, type: 2}
    m_RemovedComponents: []
  m_SourcePrefab: {fileID: 100100000, guid: e6f1e13343ea0f146a6a6b594ccf664b, type: 3}
--- !u!1001 &183988816
PrefabInstance:
  m_ObjectHideFlags: 0
  serializedVersion: 2
  m_Modification:
    m_TransformParent: {fileID: 0}
    m_Modifications:
    - target: {fileID: 1299568874674962, guid: 4e52f00c250fe274282c255981546e46, type: 3}
      propertyPath: m_IsActive
      value: 1
      objectReference: {fileID: 0}
    - target: {fileID: 4670451281988186, guid: 4e52f00c250fe274282c255981546e46, type: 3}
      propertyPath: m_LocalPosition.x
      value: -16.031
      objectReference: {fileID: 0}
    - target: {fileID: 4670451281988186, guid: 4e52f00c250fe274282c255981546e46, type: 3}
      propertyPath: m_LocalPosition.y
      value: 0
      objectReference: {fileID: 0}
    - target: {fileID: 4670451281988186, guid: 4e52f00c250fe274282c255981546e46, type: 3}
      propertyPath: m_LocalPosition.z
      value: 0
      objectReference: {fileID: 0}
    - target: {fileID: 4670451281988186, guid: 4e52f00c250fe274282c255981546e46, type: 3}
      propertyPath: m_LocalRotation.x
      value: 0
      objectReference: {fileID: 0}
    - target: {fileID: 4670451281988186, guid: 4e52f00c250fe274282c255981546e46, type: 3}
      propertyPath: m_LocalRotation.y
      value: 0
      objectReference: {fileID: 0}
    - target: {fileID: 4670451281988186, guid: 4e52f00c250fe274282c255981546e46, type: 3}
      propertyPath: m_LocalRotation.z
      value: 0
      objectReference: {fileID: 0}
    - target: {fileID: 4670451281988186, guid: 4e52f00c250fe274282c255981546e46, type: 3}
      propertyPath: m_LocalRotation.w
      value: 1
      objectReference: {fileID: 0}
    - target: {fileID: 4670451281988186, guid: 4e52f00c250fe274282c255981546e46, type: 3}
      propertyPath: m_RootOrder
      value: 18
      objectReference: {fileID: 0}
    - target: {fileID: 95791787011067172, guid: 4e52f00c250fe274282c255981546e46,
        type: 3}
      propertyPath: m_Controller
      value: 
      objectReference: {fileID: 9100000, guid: 9119d78ff9999894fb1221a724e0ac54, type: 2}
    m_RemovedComponents: []
  m_SourcePrefab: {fileID: 100100000, guid: 4e52f00c250fe274282c255981546e46, type: 3}
--- !u!1001 &285081651
PrefabInstance:
  m_ObjectHideFlags: 0
  serializedVersion: 2
  m_Modification:
    m_TransformParent: {fileID: 0}
    m_Modifications:
    - target: {fileID: 1163586836933800, guid: c826ec50ef42ad94d999e91d184745c1, type: 3}
      propertyPath: m_IsActive
      value: 1
      objectReference: {fileID: 0}
    - target: {fileID: 4960954807822776, guid: c826ec50ef42ad94d999e91d184745c1, type: 3}
      propertyPath: m_LocalPosition.x
      value: -23.031
      objectReference: {fileID: 0}
    - target: {fileID: 4960954807822776, guid: c826ec50ef42ad94d999e91d184745c1, type: 3}
      propertyPath: m_LocalPosition.y
      value: 0
      objectReference: {fileID: 0}
    - target: {fileID: 4960954807822776, guid: c826ec50ef42ad94d999e91d184745c1, type: 3}
      propertyPath: m_LocalPosition.z
      value: 0
      objectReference: {fileID: 0}
    - target: {fileID: 4960954807822776, guid: c826ec50ef42ad94d999e91d184745c1, type: 3}
      propertyPath: m_LocalRotation.x
      value: 0
      objectReference: {fileID: 0}
    - target: {fileID: 4960954807822776, guid: c826ec50ef42ad94d999e91d184745c1, type: 3}
      propertyPath: m_LocalRotation.y
      value: 0
      objectReference: {fileID: 0}
    - target: {fileID: 4960954807822776, guid: c826ec50ef42ad94d999e91d184745c1, type: 3}
      propertyPath: m_LocalRotation.z
      value: 0
      objectReference: {fileID: 0}
    - target: {fileID: 4960954807822776, guid: c826ec50ef42ad94d999e91d184745c1, type: 3}
      propertyPath: m_LocalRotation.w
      value: 1
      objectReference: {fileID: 0}
    - target: {fileID: 4960954807822776, guid: c826ec50ef42ad94d999e91d184745c1, type: 3}
      propertyPath: m_RootOrder
      value: 25
      objectReference: {fileID: 0}
    - target: {fileID: 95336889879426208, guid: c826ec50ef42ad94d999e91d184745c1,
        type: 3}
      propertyPath: m_Controller
      value: 
      objectReference: {fileID: 9100000, guid: 9119d78ff9999894fb1221a724e0ac54, type: 2}
    - target: {fileID: 137929826949751314, guid: c826ec50ef42ad94d999e91d184745c1,
        type: 3}
      propertyPath: m_Materials.Array.data[0]
      value: 
      objectReference: {fileID: 2100000, guid: 878738044afee624a879602d5c3ec8e8, type: 2}
    m_RemovedComponents: []
  m_SourcePrefab: {fileID: 100100000, guid: c826ec50ef42ad94d999e91d184745c1, type: 3}
--- !u!1001 &523906579
PrefabInstance:
  m_ObjectHideFlags: 0
  serializedVersion: 2
  m_Modification:
    m_TransformParent: {fileID: 0}
    m_Modifications:
    - target: {fileID: 1705653545518550, guid: 97dde85a63e5a26418556b52beefe518, type: 3}
      propertyPath: m_IsActive
      value: 1
      objectReference: {fileID: 0}
    - target: {fileID: 4719831792605726, guid: 97dde85a63e5a26418556b52beefe518, type: 3}
      propertyPath: m_LocalPosition.x
      value: -20.031
      objectReference: {fileID: 0}
    - target: {fileID: 4719831792605726, guid: 97dde85a63e5a26418556b52beefe518, type: 3}
      propertyPath: m_LocalPosition.y
      value: 0
      objectReference: {fileID: 0}
    - target: {fileID: 4719831792605726, guid: 97dde85a63e5a26418556b52beefe518, type: 3}
      propertyPath: m_LocalPosition.z
      value: 0
      objectReference: {fileID: 0}
    - target: {fileID: 4719831792605726, guid: 97dde85a63e5a26418556b52beefe518, type: 3}
      propertyPath: m_LocalRotation.x
      value: 0
      objectReference: {fileID: 0}
    - target: {fileID: 4719831792605726, guid: 97dde85a63e5a26418556b52beefe518, type: 3}
      propertyPath: m_LocalRotation.y
      value: 0
      objectReference: {fileID: 0}
    - target: {fileID: 4719831792605726, guid: 97dde85a63e5a26418556b52beefe518, type: 3}
      propertyPath: m_LocalRotation.z
      value: 0
      objectReference: {fileID: 0}
    - target: {fileID: 4719831792605726, guid: 97dde85a63e5a26418556b52beefe518, type: 3}
      propertyPath: m_LocalRotation.w
      value: 1
      objectReference: {fileID: 0}
    - target: {fileID: 4719831792605726, guid: 97dde85a63e5a26418556b52beefe518, type: 3}
      propertyPath: m_RootOrder
      value: 22
      objectReference: {fileID: 0}
    - target: {fileID: 95415769460657128, guid: 97dde85a63e5a26418556b52beefe518,
        type: 3}
      propertyPath: m_Controller
      value: 
      objectReference: {fileID: 9100000, guid: 9119d78ff9999894fb1221a724e0ac54, type: 2}
    m_RemovedComponents: []
  m_SourcePrefab: {fileID: 100100000, guid: 97dde85a63e5a26418556b52beefe518, type: 3}
--- !u!1001 &544875015
PrefabInstance:
  m_ObjectHideFlags: 0
  serializedVersion: 2
  m_Modification:
    m_TransformParent: {fileID: 0}
    m_Modifications:
    - target: {fileID: 1615003726210220, guid: 83ee10f4aa3678f468ff8a8b30a275d8, type: 3}
      propertyPath: m_IsActive
      value: 1
      objectReference: {fileID: 0}
    - target: {fileID: 4330093685034852, guid: 83ee10f4aa3678f468ff8a8b30a275d8, type: 3}
      propertyPath: m_LocalPosition.x
      value: -27.031
      objectReference: {fileID: 0}
    - target: {fileID: 4330093685034852, guid: 83ee10f4aa3678f468ff8a8b30a275d8, type: 3}
      propertyPath: m_LocalPosition.y
      value: 0
      objectReference: {fileID: 0}
    - target: {fileID: 4330093685034852, guid: 83ee10f4aa3678f468ff8a8b30a275d8, type: 3}
      propertyPath: m_LocalPosition.z
      value: 0
      objectReference: {fileID: 0}
    - target: {fileID: 4330093685034852, guid: 83ee10f4aa3678f468ff8a8b30a275d8, type: 3}
      propertyPath: m_LocalRotation.x
      value: 0
      objectReference: {fileID: 0}
    - target: {fileID: 4330093685034852, guid: 83ee10f4aa3678f468ff8a8b30a275d8, type: 3}
      propertyPath: m_LocalRotation.y
      value: 0
      objectReference: {fileID: 0}
    - target: {fileID: 4330093685034852, guid: 83ee10f4aa3678f468ff8a8b30a275d8, type: 3}
      propertyPath: m_LocalRotation.z
      value: 0
      objectReference: {fileID: 0}
    - target: {fileID: 4330093685034852, guid: 83ee10f4aa3678f468ff8a8b30a275d8, type: 3}
      propertyPath: m_LocalRotation.w
      value: 1
      objectReference: {fileID: 0}
    - target: {fileID: 4330093685034852, guid: 83ee10f4aa3678f468ff8a8b30a275d8, type: 3}
      propertyPath: m_RootOrder
      value: 29
      objectReference: {fileID: 0}
    - target: {fileID: 95161309979930238, guid: 83ee10f4aa3678f468ff8a8b30a275d8,
        type: 3}
      propertyPath: m_Controller
      value: 
      objectReference: {fileID: 9100000, guid: 9119d78ff9999894fb1221a724e0ac54, type: 2}
    m_RemovedComponents: []
  m_SourcePrefab: {fileID: 100100000, guid: 83ee10f4aa3678f468ff8a8b30a275d8, type: 3}
--- !u!1001 &580233026
PrefabInstance:
  m_ObjectHideFlags: 0
  serializedVersion: 2
  m_Modification:
    m_TransformParent: {fileID: 0}
    m_Modifications:
    - target: {fileID: 1828907805280080, guid: 181dc0ba5081a344e84cb2e5f5a5b7dd, type: 3}
      propertyPath: m_IsActive
      value: 1
      objectReference: {fileID: 0}
    - target: {fileID: 4306483939152276, guid: 181dc0ba5081a344e84cb2e5f5a5b7dd, type: 3}
      propertyPath: m_LocalPosition.x
      value: -0.937
      objectReference: {fileID: 0}
    - target: {fileID: 4306483939152276, guid: 181dc0ba5081a344e84cb2e5f5a5b7dd, type: 3}
      propertyPath: m_LocalPosition.y
      value: 0
      objectReference: {fileID: 0}
    - target: {fileID: 4306483939152276, guid: 181dc0ba5081a344e84cb2e5f5a5b7dd, type: 3}
      propertyPath: m_LocalPosition.z
      value: 0
      objectReference: {fileID: 0}
    - target: {fileID: 4306483939152276, guid: 181dc0ba5081a344e84cb2e5f5a5b7dd, type: 3}
      propertyPath: m_LocalRotation.x
      value: 0
      objectReference: {fileID: 0}
    - target: {fileID: 4306483939152276, guid: 181dc0ba5081a344e84cb2e5f5a5b7dd, type: 3}
      propertyPath: m_LocalRotation.y
      value: 0
      objectReference: {fileID: 0}
    - target: {fileID: 4306483939152276, guid: 181dc0ba5081a344e84cb2e5f5a5b7dd, type: 3}
      propertyPath: m_LocalRotation.z
      value: 0
      objectReference: {fileID: 0}
    - target: {fileID: 4306483939152276, guid: 181dc0ba5081a344e84cb2e5f5a5b7dd, type: 3}
      propertyPath: m_LocalRotation.w
      value: 1
      objectReference: {fileID: 0}
    - target: {fileID: 4306483939152276, guid: 181dc0ba5081a344e84cb2e5f5a5b7dd, type: 3}
      propertyPath: m_RootOrder
      value: 3
      objectReference: {fileID: 0}
    - target: {fileID: 95667794929222590, guid: 181dc0ba5081a344e84cb2e5f5a5b7dd,
        type: 3}
      propertyPath: m_Controller
      value: 
      objectReference: {fileID: 9100000, guid: 9119d78ff9999894fb1221a724e0ac54, type: 2}
    - target: {fileID: 137485860802755854, guid: 181dc0ba5081a344e84cb2e5f5a5b7dd,
        type: 3}
      propertyPath: m_Materials.Array.data[0]
      value: 
      objectReference: {fileID: 2100000, guid: 878738044afee624a879602d5c3ec8e8, type: 2}
    m_RemovedComponents: []
  m_SourcePrefab: {fileID: 100100000, guid: 181dc0ba5081a344e84cb2e5f5a5b7dd, type: 3}
--- !u!1001 &605826857
PrefabInstance:
  m_ObjectHideFlags: 0
  serializedVersion: 2
  m_Modification:
    m_TransformParent: {fileID: 0}
    m_Modifications:
    - target: {fileID: 1034553667336506, guid: fb77ae71d62794c42b7255a40a61a242, type: 3}
      propertyPath: m_IsActive
      value: 1
      objectReference: {fileID: 0}
    - target: {fileID: 4269797994914352, guid: fb77ae71d62794c42b7255a40a61a242, type: 3}
      propertyPath: m_LocalPosition.x
      value: -29.031
      objectReference: {fileID: 0}
    - target: {fileID: 4269797994914352, guid: fb77ae71d62794c42b7255a40a61a242, type: 3}
      propertyPath: m_LocalPosition.y
      value: 0
      objectReference: {fileID: 0}
    - target: {fileID: 4269797994914352, guid: fb77ae71d62794c42b7255a40a61a242, type: 3}
      propertyPath: m_LocalPosition.z
      value: 0
      objectReference: {fileID: 0}
    - target: {fileID: 4269797994914352, guid: fb77ae71d62794c42b7255a40a61a242, type: 3}
      propertyPath: m_LocalRotation.x
      value: 0
      objectReference: {fileID: 0}
    - target: {fileID: 4269797994914352, guid: fb77ae71d62794c42b7255a40a61a242, type: 3}
      propertyPath: m_LocalRotation.y
      value: 0
      objectReference: {fileID: 0}
    - target: {fileID: 4269797994914352, guid: fb77ae71d62794c42b7255a40a61a242, type: 3}
      propertyPath: m_LocalRotation.z
      value: 0
      objectReference: {fileID: 0}
    - target: {fileID: 4269797994914352, guid: fb77ae71d62794c42b7255a40a61a242, type: 3}
      propertyPath: m_LocalRotation.w
      value: 1
      objectReference: {fileID: 0}
    - target: {fileID: 4269797994914352, guid: fb77ae71d62794c42b7255a40a61a242, type: 3}
      propertyPath: m_RootOrder
      value: 31
      objectReference: {fileID: 0}
    - target: {fileID: 95321390355856792, guid: fb77ae71d62794c42b7255a40a61a242,
        type: 3}
      propertyPath: m_Controller
      value: 
      objectReference: {fileID: 9100000, guid: 9119d78ff9999894fb1221a724e0ac54, type: 2}
    - target: {fileID: 137438763597745436, guid: fb77ae71d62794c42b7255a40a61a242,
        type: 3}
      propertyPath: m_Materials.Array.data[0]
      value: 
      objectReference: {fileID: 2100000, guid: 878738044afee624a879602d5c3ec8e8, type: 2}
    m_RemovedComponents: []
  m_SourcePrefab: {fileID: 100100000, guid: fb77ae71d62794c42b7255a40a61a242, type: 3}
--- !u!1 &634811508
GameObject:
  m_ObjectHideFlags: 0
  m_CorrespondingSourceObject: {fileID: 0}
  m_PrefabInstance: {fileID: 0}
  m_PrefabAsset: {fileID: 0}
  serializedVersion: 6
  m_Component:
  - component: {fileID: 634811513}
  - component: {fileID: 634811512}
  - component: {fileID: 634811511}
  - component: {fileID: 634811510}
  - component: {fileID: 634811509}
  m_Layer: 0
  m_Name: Main Camera
  m_TagString: MainCamera
  m_Icon: {fileID: 0}
  m_NavMeshLayer: 0
  m_StaticEditorFlags: 0
  m_IsActive: 1
--- !u!81 &634811509
AudioListener:
  m_ObjectHideFlags: 0
  m_CorrespondingSourceObject: {fileID: 0}
  m_PrefabInstance: {fileID: 0}
  m_PrefabAsset: {fileID: 0}
  m_GameObject: {fileID: 634811508}
  m_Enabled: 1
--- !u!124 &634811510
Behaviour:
  m_ObjectHideFlags: 0
  m_CorrespondingSourceObject: {fileID: 0}
  m_PrefabInstance: {fileID: 0}
  m_PrefabAsset: {fileID: 0}
  m_GameObject: {fileID: 634811508}
  m_Enabled: 1
--- !u!92 &634811511
Behaviour:
  m_ObjectHideFlags: 0
  m_CorrespondingSourceObject: {fileID: 0}
  m_PrefabInstance: {fileID: 0}
  m_PrefabAsset: {fileID: 0}
  m_GameObject: {fileID: 634811508}
  m_Enabled: 1
--- !u!20 &634811512
Camera:
  m_ObjectHideFlags: 0
  m_CorrespondingSourceObject: {fileID: 0}
  m_PrefabInstance: {fileID: 0}
  m_PrefabAsset: {fileID: 0}
  m_GameObject: {fileID: 634811508}
  m_Enabled: 1
  serializedVersion: 2
  m_ClearFlags: 1
  m_BackGroundColor: {r: 0.19215687, g: 0.3019608, b: 0.4745098, a: 0}
  m_projectionMatrixMode: 1
  m_GateFitMode: 2
  m_FOVAxisMode: 0
  m_SensorSize: {x: 36, y: 24}
  m_LensShift: {x: 0, y: 0}
  m_FocalLength: 50
  m_NormalizedViewPortRect:
    serializedVersion: 2
    x: 0
    y: 0
    width: 1
    height: 1
  near clip plane: 0.3
  far clip plane: 1000
  field of view: 60
  orthographic: 0
  orthographic size: 5
  m_Depth: -1
  m_CullingMask:
    serializedVersion: 2
    m_Bits: 4294967295
  m_RenderingPath: -1
  m_TargetTexture: {fileID: 0}
  m_TargetDisplay: 0
  m_TargetEye: 3
  m_HDR: 1
  m_AllowMSAA: 1
  m_AllowDynamicResolution: 0
  m_ForceIntoRT: 0
  m_OcclusionCulling: 1
  m_StereoConvergence: 10
  m_StereoSeparation: 0.022
--- !u!4 &634811513
Transform:
  m_ObjectHideFlags: 0
  m_CorrespondingSourceObject: {fileID: 0}
  m_PrefabInstance: {fileID: 0}
  m_PrefabAsset: {fileID: 0}
  m_GameObject: {fileID: 634811508}
  m_LocalRotation: {x: 0, y: 0, z: 0, w: 1}
  m_LocalPosition: {x: 0, y: 1, z: -10}
  m_LocalScale: {x: 1, y: 1, z: 1}
  m_Children: []
  m_Father: {fileID: 0}
  m_RootOrder: 0
  m_LocalEulerAnglesHint: {x: 0, y: 0, z: 0}
--- !u!1001 &814777704
PrefabInstance:
  m_ObjectHideFlags: 0
  serializedVersion: 2
  m_Modification:
    m_TransformParent: {fileID: 0}
    m_Modifications:
    - target: {fileID: 1244755482517378, guid: b93914c580b6b45489d95383bb33828f, type: 3}
      propertyPath: m_IsActive
      value: 1
      objectReference: {fileID: 0}
    - target: {fileID: 4531078005327694, guid: b93914c580b6b45489d95383bb33828f, type: 3}
      propertyPath: m_LocalPosition.x
      value: -3.031
      objectReference: {fileID: 0}
    - target: {fileID: 4531078005327694, guid: b93914c580b6b45489d95383bb33828f, type: 3}
      propertyPath: m_LocalPosition.y
      value: 0
      objectReference: {fileID: 0}
    - target: {fileID: 4531078005327694, guid: b93914c580b6b45489d95383bb33828f, type: 3}
      propertyPath: m_LocalPosition.z
      value: 0
      objectReference: {fileID: 0}
    - target: {fileID: 4531078005327694, guid: b93914c580b6b45489d95383bb33828f, type: 3}
      propertyPath: m_LocalRotation.x
      value: 0
      objectReference: {fileID: 0}
    - target: {fileID: 4531078005327694, guid: b93914c580b6b45489d95383bb33828f, type: 3}
      propertyPath: m_LocalRotation.y
      value: 0
      objectReference: {fileID: 0}
    - target: {fileID: 4531078005327694, guid: b93914c580b6b45489d95383bb33828f, type: 3}
      propertyPath: m_LocalRotation.z
      value: 0
      objectReference: {fileID: 0}
    - target: {fileID: 4531078005327694, guid: b93914c580b6b45489d95383bb33828f, type: 3}
      propertyPath: m_LocalRotation.w
      value: 1
      objectReference: {fileID: 0}
    - target: {fileID: 4531078005327694, guid: b93914c580b6b45489d95383bb33828f, type: 3}
      propertyPath: m_RootOrder
      value: 5
      objectReference: {fileID: 0}
    - target: {fileID: 95856697796496018, guid: b93914c580b6b45489d95383bb33828f,
        type: 3}
      propertyPath: m_Controller
      value: 
      objectReference: {fileID: 9100000, guid: 9119d78ff9999894fb1221a724e0ac54, type: 2}
    - target: {fileID: 137202150873614310, guid: b93914c580b6b45489d95383bb33828f,
        type: 3}
      propertyPath: m_Materials.Array.data[0]
      value: 
      objectReference: {fileID: 2100000, guid: 878738044afee624a879602d5c3ec8e8, type: 2}
    m_RemovedComponents: []
  m_SourcePrefab: {fileID: 100100000, guid: b93914c580b6b45489d95383bb33828f, type: 3}
--- !u!1001 &912820848
PrefabInstance:
  m_ObjectHideFlags: 0
  serializedVersion: 2
  m_Modification:
    m_TransformParent: {fileID: 0}
    m_Modifications:
    - target: {fileID: 1269969655095048, guid: 086eb706c3edcf447aa2a9e0e0155538, type: 3}
      propertyPath: m_IsActive
      value: 1
      objectReference: {fileID: 0}
    - target: {fileID: 4646879947215738, guid: 086eb706c3edcf447aa2a9e0e0155538, type: 3}
      propertyPath: m_LocalPosition.x
      value: -1.91
      objectReference: {fileID: 0}
    - target: {fileID: 4646879947215738, guid: 086eb706c3edcf447aa2a9e0e0155538, type: 3}
      propertyPath: m_LocalPosition.y
      value: 0
      objectReference: {fileID: 0}
    - target: {fileID: 4646879947215738, guid: 086eb706c3edcf447aa2a9e0e0155538, type: 3}
      propertyPath: m_LocalPosition.z
      value: 0
      objectReference: {fileID: 0}
    - target: {fileID: 4646879947215738, guid: 086eb706c3edcf447aa2a9e0e0155538, type: 3}
      propertyPath: m_LocalRotation.x
      value: 0
      objectReference: {fileID: 0}
    - target: {fileID: 4646879947215738, guid: 086eb706c3edcf447aa2a9e0e0155538, type: 3}
      propertyPath: m_LocalRotation.y
      value: 0
      objectReference: {fileID: 0}
    - target: {fileID: 4646879947215738, guid: 086eb706c3edcf447aa2a9e0e0155538, type: 3}
      propertyPath: m_LocalRotation.z
      value: 0
      objectReference: {fileID: 0}
    - target: {fileID: 4646879947215738, guid: 086eb706c3edcf447aa2a9e0e0155538, type: 3}
      propertyPath: m_LocalRotation.w
      value: 1
      objectReference: {fileID: 0}
    - target: {fileID: 4646879947215738, guid: 086eb706c3edcf447aa2a9e0e0155538, type: 3}
      propertyPath: m_RootOrder
      value: 4
      objectReference: {fileID: 0}
    - target: {fileID: 95041145375652084, guid: 086eb706c3edcf447aa2a9e0e0155538,
        type: 3}
      propertyPath: m_Controller
      value: 
      objectReference: {fileID: 9100000, guid: 9119d78ff9999894fb1221a724e0ac54, type: 2}
    m_RemovedComponents: []
  m_SourcePrefab: {fileID: 100100000, guid: 086eb706c3edcf447aa2a9e0e0155538, type: 3}
--- !u!1001 &936858545
PrefabInstance:
  m_ObjectHideFlags: 0
  serializedVersion: 2
  m_Modification:
    m_TransformParent: {fileID: 0}
    m_Modifications:
    - target: {fileID: 1618728525863282, guid: 8290cdcc311ae774b8b2337965af0c77, type: 3}
      propertyPath: m_IsActive
      value: 1
      objectReference: {fileID: 0}
    - target: {fileID: 4031842071569806, guid: 8290cdcc311ae774b8b2337965af0c77, type: 3}
      propertyPath: m_LocalPosition.x
      value: -12.031
      objectReference: {fileID: 0}
    - target: {fileID: 4031842071569806, guid: 8290cdcc311ae774b8b2337965af0c77, type: 3}
      propertyPath: m_LocalPosition.y
      value: 0
      objectReference: {fileID: 0}
    - target: {fileID: 4031842071569806, guid: 8290cdcc311ae774b8b2337965af0c77, type: 3}
      propertyPath: m_LocalPosition.z
      value: 0
      objectReference: {fileID: 0}
    - target: {fileID: 4031842071569806, guid: 8290cdcc311ae774b8b2337965af0c77, type: 3}
      propertyPath: m_LocalRotation.x
      value: 0
      objectReference: {fileID: 0}
    - target: {fileID: 4031842071569806, guid: 8290cdcc311ae774b8b2337965af0c77, type: 3}
      propertyPath: m_LocalRotation.y
      value: 0
      objectReference: {fileID: 0}
    - target: {fileID: 4031842071569806, guid: 8290cdcc311ae774b8b2337965af0c77, type: 3}
      propertyPath: m_LocalRotation.z
      value: 0
      objectReference: {fileID: 0}
    - target: {fileID: 4031842071569806, guid: 8290cdcc311ae774b8b2337965af0c77, type: 3}
      propertyPath: m_LocalRotation.w
      value: 1
      objectReference: {fileID: 0}
    - target: {fileID: 4031842071569806, guid: 8290cdcc311ae774b8b2337965af0c77, type: 3}
      propertyPath: m_RootOrder
      value: 14
      objectReference: {fileID: 0}
    - target: {fileID: 95172115886350004, guid: 8290cdcc311ae774b8b2337965af0c77,
        type: 3}
      propertyPath: m_Controller
      value: 
      objectReference: {fileID: 9100000, guid: 9119d78ff9999894fb1221a724e0ac54, type: 2}
    m_RemovedComponents: []
  m_SourcePrefab: {fileID: 100100000, guid: 8290cdcc311ae774b8b2337965af0c77, type: 3}
--- !u!1001 &961654929
PrefabInstance:
  m_ObjectHideFlags: 0
  serializedVersion: 2
  m_Modification:
    m_TransformParent: {fileID: 0}
    m_Modifications:
    - target: {fileID: 1592832275445172, guid: 6519bbd6b3a14a443ab76eec3a00690e, type: 3}
      propertyPath: m_IsActive
      value: 1
      objectReference: {fileID: 0}
    - target: {fileID: 4908916481238476, guid: 6519bbd6b3a14a443ab76eec3a00690e, type: 3}
      propertyPath: m_LocalPosition.x
      value: -25.031
      objectReference: {fileID: 0}
    - target: {fileID: 4908916481238476, guid: 6519bbd6b3a14a443ab76eec3a00690e, type: 3}
      propertyPath: m_LocalPosition.y
      value: 0
      objectReference: {fileID: 0}
    - target: {fileID: 4908916481238476, guid: 6519bbd6b3a14a443ab76eec3a00690e, type: 3}
      propertyPath: m_LocalPosition.z
      value: 0
      objectReference: {fileID: 0}
    - target: {fileID: 4908916481238476, guid: 6519bbd6b3a14a443ab76eec3a00690e, type: 3}
      propertyPath: m_LocalRotation.x
      value: 0
      objectReference: {fileID: 0}
    - target: {fileID: 4908916481238476, guid: 6519bbd6b3a14a443ab76eec3a00690e, type: 3}
      propertyPath: m_LocalRotation.y
      value: 0
      objectReference: {fileID: 0}
    - target: {fileID: 4908916481238476, guid: 6519bbd6b3a14a443ab76eec3a00690e, type: 3}
      propertyPath: m_LocalRotation.z
      value: 0
      objectReference: {fileID: 0}
    - target: {fileID: 4908916481238476, guid: 6519bbd6b3a14a443ab76eec3a00690e, type: 3}
      propertyPath: m_LocalRotation.w
      value: 1
      objectReference: {fileID: 0}
    - target: {fileID: 4908916481238476, guid: 6519bbd6b3a14a443ab76eec3a00690e, type: 3}
      propertyPath: m_RootOrder
      value: 27
      objectReference: {fileID: 0}
    - target: {fileID: 95290629668370038, guid: 6519bbd6b3a14a443ab76eec3a00690e,
        type: 3}
      propertyPath: m_Controller
      value: 
      objectReference: {fileID: 9100000, guid: 9119d78ff9999894fb1221a724e0ac54, type: 2}
    m_RemovedComponents: []
  m_SourcePrefab: {fileID: 100100000, guid: 6519bbd6b3a14a443ab76eec3a00690e, type: 3}
--- !u!1001 &1058528015
PrefabInstance:
  m_ObjectHideFlags: 0
  serializedVersion: 2
  m_Modification:
    m_TransformParent: {fileID: 0}
    m_Modifications:
    - target: {fileID: 1653085758709042, guid: a9d1a634c0303c04e955a153d0a26124, type: 3}
      propertyPath: m_IsActive
      value: 1
      objectReference: {fileID: 0}
    - target: {fileID: 4774872098471188, guid: a9d1a634c0303c04e955a153d0a26124, type: 3}
      propertyPath: m_LocalPosition.x
      value: -18.031
      objectReference: {fileID: 0}
    - target: {fileID: 4774872098471188, guid: a9d1a634c0303c04e955a153d0a26124, type: 3}
      propertyPath: m_LocalPosition.y
      value: 0
      objectReference: {fileID: 0}
    - target: {fileID: 4774872098471188, guid: a9d1a634c0303c04e955a153d0a26124, type: 3}
      propertyPath: m_LocalPosition.z
      value: 0
      objectReference: {fileID: 0}
    - target: {fileID: 4774872098471188, guid: a9d1a634c0303c04e955a153d0a26124, type: 3}
      propertyPath: m_LocalRotation.x
      value: 0
      objectReference: {fileID: 0}
    - target: {fileID: 4774872098471188, guid: a9d1a634c0303c04e955a153d0a26124, type: 3}
      propertyPath: m_LocalRotation.y
      value: 0
      objectReference: {fileID: 0}
    - target: {fileID: 4774872098471188, guid: a9d1a634c0303c04e955a153d0a26124, type: 3}
      propertyPath: m_LocalRotation.z
      value: 0
      objectReference: {fileID: 0}
    - target: {fileID: 4774872098471188, guid: a9d1a634c0303c04e955a153d0a26124, type: 3}
      propertyPath: m_LocalRotation.w
      value: 1
      objectReference: {fileID: 0}
    - target: {fileID: 4774872098471188, guid: a9d1a634c0303c04e955a153d0a26124, type: 3}
      propertyPath: m_RootOrder
      value: 20
      objectReference: {fileID: 0}
    - target: {fileID: 95253715281746520, guid: a9d1a634c0303c04e955a153d0a26124,
        type: 3}
      propertyPath: m_Controller
      value: 
      objectReference: {fileID: 9100000, guid: 9119d78ff9999894fb1221a724e0ac54, type: 2}
    m_RemovedComponents: []
  m_SourcePrefab: {fileID: 100100000, guid: a9d1a634c0303c04e955a153d0a26124, type: 3}
--- !u!1001 &1067421977
PrefabInstance:
  m_ObjectHideFlags: 0
  serializedVersion: 2
  m_Modification:
    m_TransformParent: {fileID: 0}
    m_Modifications:
    - target: {fileID: 1194440336069740, guid: c75b833e269eebc47a5fda5832a5c25e, type: 3}
      propertyPath: m_IsActive
      value: 1
      objectReference: {fileID: 0}
    - target: {fileID: 4075453505079758, guid: c75b833e269eebc47a5fda5832a5c25e, type: 3}
      propertyPath: m_LocalPosition.x
      value: -6.031
      objectReference: {fileID: 0}
    - target: {fileID: 4075453505079758, guid: c75b833e269eebc47a5fda5832a5c25e, type: 3}
      propertyPath: m_LocalPosition.y
      value: 0
      objectReference: {fileID: 0}
    - target: {fileID: 4075453505079758, guid: c75b833e269eebc47a5fda5832a5c25e, type: 3}
      propertyPath: m_LocalPosition.z
      value: 0
      objectReference: {fileID: 0}
    - target: {fileID: 4075453505079758, guid: c75b833e269eebc47a5fda5832a5c25e, type: 3}
      propertyPath: m_LocalRotation.x
      value: 0
      objectReference: {fileID: 0}
    - target: {fileID: 4075453505079758, guid: c75b833e269eebc47a5fda5832a5c25e, type: 3}
      propertyPath: m_LocalRotation.y
      value: 0
      objectReference: {fileID: 0}
    - target: {fileID: 4075453505079758, guid: c75b833e269eebc47a5fda5832a5c25e, type: 3}
      propertyPath: m_LocalRotation.z
      value: 0
      objectReference: {fileID: 0}
    - target: {fileID: 4075453505079758, guid: c75b833e269eebc47a5fda5832a5c25e, type: 3}
      propertyPath: m_LocalRotation.w
      value: 1
      objectReference: {fileID: 0}
    - target: {fileID: 4075453505079758, guid: c75b833e269eebc47a5fda5832a5c25e, type: 3}
      propertyPath: m_RootOrder
      value: 8
      objectReference: {fileID: 0}
    - target: {fileID: 95463778346363158, guid: c75b833e269eebc47a5fda5832a5c25e,
        type: 3}
      propertyPath: m_Controller
      value: 
      objectReference: {fileID: 9100000, guid: 9119d78ff9999894fb1221a724e0ac54, type: 2}
    m_RemovedComponents: []
  m_SourcePrefab: {fileID: 100100000, guid: c75b833e269eebc47a5fda5832a5c25e, type: 3}
--- !u!1001 &1094912278
PrefabInstance:
  m_ObjectHideFlags: 0
  serializedVersion: 2
  m_Modification:
    m_TransformParent: {fileID: 0}
    m_Modifications:
    - target: {fileID: 1209125636603334, guid: 556dfb4cf14718c4c977d07cb442691e, type: 3}
      propertyPath: m_IsActive
      value: 1
      objectReference: {fileID: 0}
    - target: {fileID: 4791393267011468, guid: 556dfb4cf14718c4c977d07cb442691e, type: 3}
      propertyPath: m_LocalPosition.x
      value: -11.031
      objectReference: {fileID: 0}
    - target: {fileID: 4791393267011468, guid: 556dfb4cf14718c4c977d07cb442691e, type: 3}
      propertyPath: m_LocalPosition.y
      value: 0
      objectReference: {fileID: 0}
    - target: {fileID: 4791393267011468, guid: 556dfb4cf14718c4c977d07cb442691e, type: 3}
      propertyPath: m_LocalPosition.z
      value: 0
      objectReference: {fileID: 0}
    - target: {fileID: 4791393267011468, guid: 556dfb4cf14718c4c977d07cb442691e, type: 3}
      propertyPath: m_LocalRotation.x
      value: 0
      objectReference: {fileID: 0}
    - target: {fileID: 4791393267011468, guid: 556dfb4cf14718c4c977d07cb442691e, type: 3}
      propertyPath: m_LocalRotation.y
      value: 0
      objectReference: {fileID: 0}
    - target: {fileID: 4791393267011468, guid: 556dfb4cf14718c4c977d07cb442691e, type: 3}
      propertyPath: m_LocalRotation.z
      value: 0
      objectReference: {fileID: 0}
    - target: {fileID: 4791393267011468, guid: 556dfb4cf14718c4c977d07cb442691e, type: 3}
      propertyPath: m_LocalRotation.w
      value: 1
      objectReference: {fileID: 0}
    - target: {fileID: 4791393267011468, guid: 556dfb4cf14718c4c977d07cb442691e, type: 3}
      propertyPath: m_RootOrder
      value: 13
      objectReference: {fileID: 0}
    - target: {fileID: 95233637316950780, guid: 556dfb4cf14718c4c977d07cb442691e,
        type: 3}
      propertyPath: m_Controller
      value: 
      objectReference: {fileID: 9100000, guid: 9119d78ff9999894fb1221a724e0ac54, type: 2}
    - target: {fileID: 137666512064809030, guid: 556dfb4cf14718c4c977d07cb442691e,
        type: 3}
      propertyPath: m_Materials.Array.data[0]
      value: 
      objectReference: {fileID: 2100000, guid: c88b8150d19efe549ad9a19aff7810e2, type: 2}
    m_RemovedComponents: []
  m_SourcePrefab: {fileID: 100100000, guid: 556dfb4cf14718c4c977d07cb442691e, type: 3}
--- !u!1001 &1156044541
PrefabInstance:
  m_ObjectHideFlags: 0
  serializedVersion: 2
  m_Modification:
    m_TransformParent: {fileID: 0}
    m_Modifications:
    - target: {fileID: 1464760467788068, guid: c5e87bb6a51d86d47b607893784e823b, type: 3}
      propertyPath: m_IsActive
      value: 1
      objectReference: {fileID: 0}
    - target: {fileID: 4394320466852638, guid: c5e87bb6a51d86d47b607893784e823b, type: 3}
      propertyPath: m_LocalPosition.x
      value: -31.031
      objectReference: {fileID: 0}
    - target: {fileID: 4394320466852638, guid: c5e87bb6a51d86d47b607893784e823b, type: 3}
      propertyPath: m_LocalPosition.y
      value: 0
      objectReference: {fileID: 0}
    - target: {fileID: 4394320466852638, guid: c5e87bb6a51d86d47b607893784e823b, type: 3}
      propertyPath: m_LocalPosition.z
      value: 0
      objectReference: {fileID: 0}
    - target: {fileID: 4394320466852638, guid: c5e87bb6a51d86d47b607893784e823b, type: 3}
      propertyPath: m_LocalRotation.x
      value: 0
      objectReference: {fileID: 0}
    - target: {fileID: 4394320466852638, guid: c5e87bb6a51d86d47b607893784e823b, type: 3}
      propertyPath: m_LocalRotation.y
      value: 0
      objectReference: {fileID: 0}
    - target: {fileID: 4394320466852638, guid: c5e87bb6a51d86d47b607893784e823b, type: 3}
      propertyPath: m_LocalRotation.z
      value: 0
      objectReference: {fileID: 0}
    - target: {fileID: 4394320466852638, guid: c5e87bb6a51d86d47b607893784e823b, type: 3}
      propertyPath: m_LocalRotation.w
      value: 1
      objectReference: {fileID: 0}
    - target: {fileID: 4394320466852638, guid: c5e87bb6a51d86d47b607893784e823b, type: 3}
      propertyPath: m_RootOrder
      value: 33
      objectReference: {fileID: 0}
    - target: {fileID: 95680051764867270, guid: c5e87bb6a51d86d47b607893784e823b,
        type: 3}
      propertyPath: m_Controller
      value: 
      objectReference: {fileID: 9100000, guid: 9119d78ff9999894fb1221a724e0ac54, type: 2}
    m_RemovedComponents: []
  m_SourcePrefab: {fileID: 100100000, guid: c5e87bb6a51d86d47b607893784e823b, type: 3}
--- !u!1001 &1156814443
PrefabInstance:
  m_ObjectHideFlags: 0
  serializedVersion: 2
  m_Modification:
    m_TransformParent: {fileID: 0}
    m_Modifications:
    - target: {fileID: 1356772897203052, guid: ecce7fd9ad28e59488f2490e9c1aa92a, type: 3}
      propertyPath: m_IsActive
      value: 1
      objectReference: {fileID: 0}
    - target: {fileID: 4847616312471762, guid: ecce7fd9ad28e59488f2490e9c1aa92a, type: 3}
      propertyPath: m_LocalPosition.x
      value: -17.031
      objectReference: {fileID: 0}
    - target: {fileID: 4847616312471762, guid: ecce7fd9ad28e59488f2490e9c1aa92a, type: 3}
      propertyPath: m_LocalPosition.y
      value: 0
      objectReference: {fileID: 0}
    - target: {fileID: 4847616312471762, guid: ecce7fd9ad28e59488f2490e9c1aa92a, type: 3}
      propertyPath: m_LocalPosition.z
      value: 0
      objectReference: {fileID: 0}
    - target: {fileID: 4847616312471762, guid: ecce7fd9ad28e59488f2490e9c1aa92a, type: 3}
      propertyPath: m_LocalRotation.x
      value: 0
      objectReference: {fileID: 0}
    - target: {fileID: 4847616312471762, guid: ecce7fd9ad28e59488f2490e9c1aa92a, type: 3}
      propertyPath: m_LocalRotation.y
      value: 0
      objectReference: {fileID: 0}
    - target: {fileID: 4847616312471762, guid: ecce7fd9ad28e59488f2490e9c1aa92a, type: 3}
      propertyPath: m_LocalRotation.z
      value: 0
      objectReference: {fileID: 0}
    - target: {fileID: 4847616312471762, guid: ecce7fd9ad28e59488f2490e9c1aa92a, type: 3}
      propertyPath: m_LocalRotation.w
      value: 1
      objectReference: {fileID: 0}
    - target: {fileID: 4847616312471762, guid: ecce7fd9ad28e59488f2490e9c1aa92a, type: 3}
      propertyPath: m_RootOrder
      value: 19
      objectReference: {fileID: 0}
    - target: {fileID: 95757316793995806, guid: ecce7fd9ad28e59488f2490e9c1aa92a,
        type: 3}
      propertyPath: m_Controller
      value: 
      objectReference: {fileID: 9100000, guid: 9119d78ff9999894fb1221a724e0ac54, type: 2}
    m_RemovedComponents: []
  m_SourcePrefab: {fileID: 100100000, guid: ecce7fd9ad28e59488f2490e9c1aa92a, type: 3}
--- !u!1001 &1171353186
PrefabInstance:
  m_ObjectHideFlags: 0
  serializedVersion: 2
  m_Modification:
    m_TransformParent: {fileID: 0}
    m_Modifications:
    - target: {fileID: 1253556487391000, guid: 6e0eba82d6ca2e444ab251c32bdffcd2, type: 3}
      propertyPath: m_IsActive
      value: 1
      objectReference: {fileID: 0}
    - target: {fileID: 4187768299934030, guid: 6e0eba82d6ca2e444ab251c32bdffcd2, type: 3}
      propertyPath: m_LocalPosition.x
      value: -10.031
      objectReference: {fileID: 0}
    - target: {fileID: 4187768299934030, guid: 6e0eba82d6ca2e444ab251c32bdffcd2, type: 3}
      propertyPath: m_LocalPosition.y
      value: 0
      objectReference: {fileID: 0}
    - target: {fileID: 4187768299934030, guid: 6e0eba82d6ca2e444ab251c32bdffcd2, type: 3}
      propertyPath: m_LocalPosition.z
      value: 0
      objectReference: {fileID: 0}
    - target: {fileID: 4187768299934030, guid: 6e0eba82d6ca2e444ab251c32bdffcd2, type: 3}
      propertyPath: m_LocalRotation.x
      value: 0
      objectReference: {fileID: 0}
    - target: {fileID: 4187768299934030, guid: 6e0eba82d6ca2e444ab251c32bdffcd2, type: 3}
      propertyPath: m_LocalRotation.y
      value: 0
      objectReference: {fileID: 0}
    - target: {fileID: 4187768299934030, guid: 6e0eba82d6ca2e444ab251c32bdffcd2, type: 3}
      propertyPath: m_LocalRotation.z
      value: 0
      objectReference: {fileID: 0}
    - target: {fileID: 4187768299934030, guid: 6e0eba82d6ca2e444ab251c32bdffcd2, type: 3}
      propertyPath: m_LocalRotation.w
      value: 1
      objectReference: {fileID: 0}
    - target: {fileID: 4187768299934030, guid: 6e0eba82d6ca2e444ab251c32bdffcd2, type: 3}
      propertyPath: m_RootOrder
      value: 12
      objectReference: {fileID: 0}
    - target: {fileID: 95956917427795058, guid: 6e0eba82d6ca2e444ab251c32bdffcd2,
        type: 3}
      propertyPath: m_Controller
      value: 
      objectReference: {fileID: 9100000, guid: 9119d78ff9999894fb1221a724e0ac54, type: 2}
    m_RemovedComponents: []
  m_SourcePrefab: {fileID: 100100000, guid: 6e0eba82d6ca2e444ab251c32bdffcd2, type: 3}
--- !u!1001 &1344996624
PrefabInstance:
  m_ObjectHideFlags: 0
  serializedVersion: 2
  m_Modification:
    m_TransformParent: {fileID: 0}
    m_Modifications:
    - target: {fileID: 1508561325381452, guid: 60ac356c0a6f2694785d679c71585c01, type: 3}
      propertyPath: m_IsActive
      value: 1
      objectReference: {fileID: 0}
    - target: {fileID: 4057393656905144, guid: 60ac356c0a6f2694785d679c71585c01, type: 3}
      propertyPath: m_LocalPosition.x
      value: -8.031
      objectReference: {fileID: 0}
    - target: {fileID: 4057393656905144, guid: 60ac356c0a6f2694785d679c71585c01, type: 3}
      propertyPath: m_LocalPosition.y
      value: 0
      objectReference: {fileID: 0}
    - target: {fileID: 4057393656905144, guid: 60ac356c0a6f2694785d679c71585c01, type: 3}
      propertyPath: m_LocalPosition.z
      value: 0
      objectReference: {fileID: 0}
    - target: {fileID: 4057393656905144, guid: 60ac356c0a6f2694785d679c71585c01, type: 3}
      propertyPath: m_LocalRotation.x
      value: 0
      objectReference: {fileID: 0}
    - target: {fileID: 4057393656905144, guid: 60ac356c0a6f2694785d679c71585c01, type: 3}
      propertyPath: m_LocalRotation.y
      value: 0
      objectReference: {fileID: 0}
    - target: {fileID: 4057393656905144, guid: 60ac356c0a6f2694785d679c71585c01, type: 3}
      propertyPath: m_LocalRotation.z
      value: 0
      objectReference: {fileID: 0}
    - target: {fileID: 4057393656905144, guid: 60ac356c0a6f2694785d679c71585c01, type: 3}
      propertyPath: m_LocalRotation.w
      value: 1
      objectReference: {fileID: 0}
    - target: {fileID: 4057393656905144, guid: 60ac356c0a6f2694785d679c71585c01, type: 3}
      propertyPath: m_RootOrder
      value: 10
      objectReference: {fileID: 0}
    - target: {fileID: 95508113045659904, guid: 60ac356c0a6f2694785d679c71585c01,
        type: 3}
      propertyPath: m_Controller
      value: 
      objectReference: {fileID: 9100000, guid: 9119d78ff9999894fb1221a724e0ac54, type: 2}
    m_RemovedComponents: []
  m_SourcePrefab: {fileID: 100100000, guid: 60ac356c0a6f2694785d679c71585c01, type: 3}
--- !u!1001 &1380294378
PrefabInstance:
  m_ObjectHideFlags: 0
  serializedVersion: 2
  m_Modification:
    m_TransformParent: {fileID: 0}
    m_Modifications:
    - target: {fileID: 1576594309657800, guid: 17f2609152389784086617ed8b4307f2, type: 3}
      propertyPath: m_IsActive
      value: 1
      objectReference: {fileID: 0}
    - target: {fileID: 4568480161374268, guid: 17f2609152389784086617ed8b4307f2, type: 3}
      propertyPath: m_LocalPosition.x
      value: -32.031
      objectReference: {fileID: 0}
    - target: {fileID: 4568480161374268, guid: 17f2609152389784086617ed8b4307f2, type: 3}
      propertyPath: m_LocalPosition.y
      value: 0
      objectReference: {fileID: 0}
    - target: {fileID: 4568480161374268, guid: 17f2609152389784086617ed8b4307f2, type: 3}
      propertyPath: m_LocalPosition.z
      value: 0
      objectReference: {fileID: 0}
    - target: {fileID: 4568480161374268, guid: 17f2609152389784086617ed8b4307f2, type: 3}
      propertyPath: m_LocalRotation.x
      value: 0
      objectReference: {fileID: 0}
    - target: {fileID: 4568480161374268, guid: 17f2609152389784086617ed8b4307f2, type: 3}
      propertyPath: m_LocalRotation.y
      value: 0
      objectReference: {fileID: 0}
    - target: {fileID: 4568480161374268, guid: 17f2609152389784086617ed8b4307f2, type: 3}
      propertyPath: m_LocalRotation.z
      value: 0
      objectReference: {fileID: 0}
    - target: {fileID: 4568480161374268, guid: 17f2609152389784086617ed8b4307f2, type: 3}
      propertyPath: m_LocalRotation.w
      value: 1
      objectReference: {fileID: 0}
    - target: {fileID: 4568480161374268, guid: 17f2609152389784086617ed8b4307f2, type: 3}
      propertyPath: m_RootOrder
      value: 34
      objectReference: {fileID: 0}
    - target: {fileID: 95958471722119092, guid: 17f2609152389784086617ed8b4307f2,
        type: 3}
      propertyPath: m_Controller
      value: 
      objectReference: {fileID: 9100000, guid: 9119d78ff9999894fb1221a724e0ac54, type: 2}
    - target: {fileID: 137069243660974304, guid: 17f2609152389784086617ed8b4307f2,
        type: 3}
      propertyPath: m_Materials.Array.data[0]
      value: 
      objectReference: {fileID: 2100000, guid: 878738044afee624a879602d5c3ec8e8, type: 2}
    m_RemovedComponents: []
  m_SourcePrefab: {fileID: 100100000, guid: 17f2609152389784086617ed8b4307f2, type: 3}
--- !u!1001 &1433787715
PrefabInstance:
  m_ObjectHideFlags: 0
  serializedVersion: 2
  m_Modification:
    m_TransformParent: {fileID: 0}
    m_Modifications:
    - target: {fileID: 1891422537391016, guid: 9dd1132792c8f5e46bcd555cda074904, type: 3}
      propertyPath: m_IsActive
      value: 1
      objectReference: {fileID: 0}
    - target: {fileID: 4506883961726010, guid: 9dd1132792c8f5e46bcd555cda074904, type: 3}
      propertyPath: m_LocalPosition.x
      value: -21.031
      objectReference: {fileID: 0}
    - target: {fileID: 4506883961726010, guid: 9dd1132792c8f5e46bcd555cda074904, type: 3}
      propertyPath: m_LocalPosition.y
      value: 0
      objectReference: {fileID: 0}
    - target: {fileID: 4506883961726010, guid: 9dd1132792c8f5e46bcd555cda074904, type: 3}
      propertyPath: m_LocalPosition.z
      value: 0
      objectReference: {fileID: 0}
    - target: {fileID: 4506883961726010, guid: 9dd1132792c8f5e46bcd555cda074904, type: 3}
      propertyPath: m_LocalRotation.x
      value: 0
      objectReference: {fileID: 0}
    - target: {fileID: 4506883961726010, guid: 9dd1132792c8f5e46bcd555cda074904, type: 3}
      propertyPath: m_LocalRotation.y
      value: 0
      objectReference: {fileID: 0}
    - target: {fileID: 4506883961726010, guid: 9dd1132792c8f5e46bcd555cda074904, type: 3}
      propertyPath: m_LocalRotation.z
      value: 0
      objectReference: {fileID: 0}
    - target: {fileID: 4506883961726010, guid: 9dd1132792c8f5e46bcd555cda074904, type: 3}
      propertyPath: m_LocalRotation.w
      value: 1
      objectReference: {fileID: 0}
    - target: {fileID: 4506883961726010, guid: 9dd1132792c8f5e46bcd555cda074904, type: 3}
      propertyPath: m_RootOrder
      value: 23
      objectReference: {fileID: 0}
    - target: {fileID: 95859221648623592, guid: 9dd1132792c8f5e46bcd555cda074904,
        type: 3}
      propertyPath: m_Controller
      value: 
      objectReference: {fileID: 9100000, guid: 9119d78ff9999894fb1221a724e0ac54, type: 2}
    m_RemovedComponents: []
  m_SourcePrefab: {fileID: 100100000, guid: 9dd1132792c8f5e46bcd555cda074904, type: 3}
--- !u!1001 &1438132797
PrefabInstance:
  m_ObjectHideFlags: 0
  serializedVersion: 2
  m_Modification:
    m_TransformParent: {fileID: 0}
    m_Modifications:
    - target: {fileID: 1037506244427634, guid: 143cf626d609a7a4c99f17d64c843004, type: 3}
      propertyPath: m_IsActive
      value: 1
      objectReference: {fileID: 0}
    - target: {fileID: 4397964672771572, guid: 143cf626d609a7a4c99f17d64c843004, type: 3}
      propertyPath: m_LocalPosition.x
      value: -5.031
      objectReference: {fileID: 0}
    - target: {fileID: 4397964672771572, guid: 143cf626d609a7a4c99f17d64c843004, type: 3}
      propertyPath: m_LocalPosition.y
      value: 0
      objectReference: {fileID: 0}
    - target: {fileID: 4397964672771572, guid: 143cf626d609a7a4c99f17d64c843004, type: 3}
      propertyPath: m_LocalPosition.z
      value: 0
      objectReference: {fileID: 0}
    - target: {fileID: 4397964672771572, guid: 143cf626d609a7a4c99f17d64c843004, type: 3}
      propertyPath: m_LocalRotation.x
      value: 0
      objectReference: {fileID: 0}
    - target: {fileID: 4397964672771572, guid: 143cf626d609a7a4c99f17d64c843004, type: 3}
      propertyPath: m_LocalRotation.y
      value: 0
      objectReference: {fileID: 0}
    - target: {fileID: 4397964672771572, guid: 143cf626d609a7a4c99f17d64c843004, type: 3}
      propertyPath: m_LocalRotation.z
      value: 0
      objectReference: {fileID: 0}
    - target: {fileID: 4397964672771572, guid: 143cf626d609a7a4c99f17d64c843004, type: 3}
      propertyPath: m_LocalRotation.w
      value: 1
      objectReference: {fileID: 0}
    - target: {fileID: 4397964672771572, guid: 143cf626d609a7a4c99f17d64c843004, type: 3}
      propertyPath: m_RootOrder
      value: 7
      objectReference: {fileID: 0}
    - target: {fileID: 95745393913946924, guid: 143cf626d609a7a4c99f17d64c843004,
        type: 3}
      propertyPath: m_Controller
      value: 
      objectReference: {fileID: 9100000, guid: 9119d78ff9999894fb1221a724e0ac54, type: 2}
    m_RemovedComponents: []
  m_SourcePrefab: {fileID: 100100000, guid: 143cf626d609a7a4c99f17d64c843004, type: 3}
--- !u!1 &1470062589
GameObject:
  m_ObjectHideFlags: 0
  m_CorrespondingSourceObject: {fileID: 0}
  m_PrefabInstance: {fileID: 0}
  m_PrefabAsset: {fileID: 0}
  serializedVersion: 6
  m_Component:
  - component: {fileID: 1470062591}
  - component: {fileID: 1470062590}
  m_Layer: 0
  m_Name: Directional Light
  m_TagString: Untagged
  m_Icon: {fileID: 0}
  m_NavMeshLayer: 0
  m_StaticEditorFlags: 0
  m_IsActive: 1
--- !u!108 &1470062590
Light:
  m_ObjectHideFlags: 0
  m_CorrespondingSourceObject: {fileID: 0}
  m_PrefabInstance: {fileID: 0}
  m_PrefabAsset: {fileID: 0}
  m_GameObject: {fileID: 1470062589}
  m_Enabled: 1
  serializedVersion: 9
  m_Type: 1
  m_Color: {r: 1, g: 0.95686275, b: 0.8392157, a: 1}
  m_Intensity: 1
  m_Range: 10
  m_SpotAngle: 30
  m_InnerSpotAngle: 21.80208
  m_CookieSize: 10
  m_Shadows:
    m_Type: 2
    m_Resolution: -1
    m_CustomResolution: -1
    m_Strength: 1
    m_Bias: 0.05
    m_NormalBias: 0.4
    m_NearPlane: 0.2
    m_CullingMatrixOverride:
      e00: 1
      e01: 0
      e02: 0
      e03: 0
      e10: 0
      e11: 1
      e12: 0
      e13: 0
      e20: 0
      e21: 0
      e22: 1
      e23: 0
      e30: 0
      e31: 0
      e32: 0
      e33: 1
    m_UseCullingMatrixOverride: 0
  m_Cookie: {fileID: 0}
  m_DrawHalo: 0
  m_Flare: {fileID: 0}
  m_RenderMode: 0
  m_CullingMask:
    serializedVersion: 2
    m_Bits: 4294967295
  m_RenderingLayerMask: 1
  m_Lightmapping: 4
  m_LightShadowCasterMode: 0
  m_AreaSize: {x: 1, y: 1}
  m_BounceIntensity: 1
  m_ColorTemperature: 6570
  m_UseColorTemperature: 0
  m_BoundingSphereOverride: {x: 0, y: 0, z: 0, w: 0}
  m_UseBoundingSphereOverride: 0
  m_ShadowRadius: 0
  m_ShadowAngle: 0
--- !u!4 &1470062591
Transform:
  m_ObjectHideFlags: 0
  m_CorrespondingSourceObject: {fileID: 0}
  m_PrefabInstance: {fileID: 0}
  m_PrefabAsset: {fileID: 0}
  m_GameObject: {fileID: 1470062589}
  m_LocalRotation: {x: 0.40821788, y: -0.23456968, z: 0.10938163, w: 0.8754261}
  m_LocalPosition: {x: 0, y: 3, z: 0}
  m_LocalScale: {x: 1, y: 1, z: 1}
  m_Children: []
  m_Father: {fileID: 0}
  m_RootOrder: 1
  m_LocalEulerAnglesHint: {x: 50, y: -30, z: 0}
--- !u!1001 &1494420216
PrefabInstance:
  m_ObjectHideFlags: 0
  serializedVersion: 2
  m_Modification:
    m_TransformParent: {fileID: 0}
    m_Modifications:
    - target: {fileID: 1158145756601644, guid: 000c30e3bfd0152489d4d663914aee83, type: 3}
      propertyPath: m_IsActive
      value: 1
      objectReference: {fileID: 0}
    - target: {fileID: 4283031058075498, guid: 000c30e3bfd0152489d4d663914aee83, type: 3}
      propertyPath: m_LocalPosition.x
      value: -4.031
      objectReference: {fileID: 0}
    - target: {fileID: 4283031058075498, guid: 000c30e3bfd0152489d4d663914aee83, type: 3}
      propertyPath: m_LocalPosition.y
      value: 0
      objectReference: {fileID: 0}
    - target: {fileID: 4283031058075498, guid: 000c30e3bfd0152489d4d663914aee83, type: 3}
      propertyPath: m_LocalPosition.z
      value: 0
      objectReference: {fileID: 0}
    - target: {fileID: 4283031058075498, guid: 000c30e3bfd0152489d4d663914aee83, type: 3}
      propertyPath: m_LocalRotation.x
      value: 0
      objectReference: {fileID: 0}
    - target: {fileID: 4283031058075498, guid: 000c30e3bfd0152489d4d663914aee83, type: 3}
      propertyPath: m_LocalRotation.y
      value: 0
      objectReference: {fileID: 0}
    - target: {fileID: 4283031058075498, guid: 000c30e3bfd0152489d4d663914aee83, type: 3}
      propertyPath: m_LocalRotation.z
      value: 0
      objectReference: {fileID: 0}
    - target: {fileID: 4283031058075498, guid: 000c30e3bfd0152489d4d663914aee83, type: 3}
      propertyPath: m_LocalRotation.w
      value: 1
      objectReference: {fileID: 0}
    - target: {fileID: 4283031058075498, guid: 000c30e3bfd0152489d4d663914aee83, type: 3}
      propertyPath: m_RootOrder
      value: 6
      objectReference: {fileID: 0}
    - target: {fileID: 95799011899466854, guid: 000c30e3bfd0152489d4d663914aee83,
        type: 3}
      propertyPath: m_Controller
      value: 
      objectReference: {fileID: 9100000, guid: 9119d78ff9999894fb1221a724e0ac54, type: 2}
    m_RemovedComponents: []
  m_SourcePrefab: {fileID: 100100000, guid: 000c30e3bfd0152489d4d663914aee83, type: 3}
--- !u!1001 &1515214734
PrefabInstance:
  m_ObjectHideFlags: 0
  serializedVersion: 2
  m_Modification:
    m_TransformParent: {fileID: 0}
    m_Modifications:
    - target: {fileID: 1793352060976458, guid: f0035ce155c0a5b40bab2f30a7bdd30f, type: 3}
      propertyPath: m_IsActive
      value: 1
      objectReference: {fileID: 0}
    - target: {fileID: 4677913765011374, guid: f0035ce155c0a5b40bab2f30a7bdd30f, type: 3}
      propertyPath: m_LocalPosition.x
      value: -28.031
      objectReference: {fileID: 0}
    - target: {fileID: 4677913765011374, guid: f0035ce155c0a5b40bab2f30a7bdd30f, type: 3}
      propertyPath: m_LocalPosition.y
      value: 0
      objectReference: {fileID: 0}
    - target: {fileID: 4677913765011374, guid: f0035ce155c0a5b40bab2f30a7bdd30f, type: 3}
      propertyPath: m_LocalPosition.z
      value: 0
      objectReference: {fileID: 0}
    - target: {fileID: 4677913765011374, guid: f0035ce155c0a5b40bab2f30a7bdd30f, type: 3}
      propertyPath: m_LocalRotation.x
      value: 0
      objectReference: {fileID: 0}
    - target: {fileID: 4677913765011374, guid: f0035ce155c0a5b40bab2f30a7bdd30f, type: 3}
      propertyPath: m_LocalRotation.y
      value: 0
      objectReference: {fileID: 0}
    - target: {fileID: 4677913765011374, guid: f0035ce155c0a5b40bab2f30a7bdd30f, type: 3}
      propertyPath: m_LocalRotation.z
      value: 0
      objectReference: {fileID: 0}
    - target: {fileID: 4677913765011374, guid: f0035ce155c0a5b40bab2f30a7bdd30f, type: 3}
      propertyPath: m_LocalRotation.w
      value: 1
      objectReference: {fileID: 0}
    - target: {fileID: 4677913765011374, guid: f0035ce155c0a5b40bab2f30a7bdd30f, type: 3}
      propertyPath: m_RootOrder
      value: 30
      objectReference: {fileID: 0}
    - target: {fileID: 95249822642043392, guid: f0035ce155c0a5b40bab2f30a7bdd30f,
        type: 3}
      propertyPath: m_Controller
      value: 
      objectReference: {fileID: 9100000, guid: 9119d78ff9999894fb1221a724e0ac54, type: 2}
    - target: {fileID: 137523351957659720, guid: f0035ce155c0a5b40bab2f30a7bdd30f,
        type: 3}
      propertyPath: m_Materials.Array.data[0]
      value: 
      objectReference: {fileID: 2100000, guid: 6d03e424ee7865446bb330749ad2a78d, type: 2}
    m_RemovedComponents: []
  m_SourcePrefab: {fileID: 100100000, guid: f0035ce155c0a5b40bab2f30a7bdd30f, type: 3}
--- !u!1001 &1567399895
PrefabInstance:
  m_ObjectHideFlags: 0
  serializedVersion: 2
  m_Modification:
    m_TransformParent: {fileID: 0}
    m_Modifications:
    - target: {fileID: 1546435506868748, guid: 89fbce75e15ab584587d452df4706a8c, type: 3}
      propertyPath: m_IsActive
      value: 1
      objectReference: {fileID: 0}
    - target: {fileID: 4438834478863538, guid: 89fbce75e15ab584587d452df4706a8c, type: 3}
      propertyPath: m_LocalPosition.x
      value: -9.031
      objectReference: {fileID: 0}
    - target: {fileID: 4438834478863538, guid: 89fbce75e15ab584587d452df4706a8c, type: 3}
      propertyPath: m_LocalPosition.y
      value: 0
      objectReference: {fileID: 0}
    - target: {fileID: 4438834478863538, guid: 89fbce75e15ab584587d452df4706a8c, type: 3}
      propertyPath: m_LocalPosition.z
      value: 0
      objectReference: {fileID: 0}
    - target: {fileID: 4438834478863538, guid: 89fbce75e15ab584587d452df4706a8c, type: 3}
      propertyPath: m_LocalRotation.x
      value: 0
      objectReference: {fileID: 0}
    - target: {fileID: 4438834478863538, guid: 89fbce75e15ab584587d452df4706a8c, type: 3}
      propertyPath: m_LocalRotation.y
      value: 0
      objectReference: {fileID: 0}
    - target: {fileID: 4438834478863538, guid: 89fbce75e15ab584587d452df4706a8c, type: 3}
      propertyPath: m_LocalRotation.z
      value: 0
      objectReference: {fileID: 0}
    - target: {fileID: 4438834478863538, guid: 89fbce75e15ab584587d452df4706a8c, type: 3}
      propertyPath: m_LocalRotation.w
      value: 1
      objectReference: {fileID: 0}
    - target: {fileID: 4438834478863538, guid: 89fbce75e15ab584587d452df4706a8c, type: 3}
      propertyPath: m_RootOrder
      value: 11
      objectReference: {fileID: 0}
    - target: {fileID: 95879861836411100, guid: 89fbce75e15ab584587d452df4706a8c,
        type: 3}
      propertyPath: m_Controller
      value: 
      objectReference: {fileID: 9100000, guid: 9119d78ff9999894fb1221a724e0ac54, type: 2}
    m_RemovedComponents: []
  m_SourcePrefab: {fileID: 100100000, guid: 89fbce75e15ab584587d452df4706a8c, type: 3}
--- !u!1001 &1587233205
PrefabInstance:
  m_ObjectHideFlags: 0
  serializedVersion: 2
  m_Modification:
    m_TransformParent: {fileID: 0}
    m_Modifications:
    - target: {fileID: 1519168518667508, guid: a09c36d9674e75f41a494ce953559f04, type: 3}
      propertyPath: m_IsActive
      value: 1
      objectReference: {fileID: 0}
    - target: {fileID: 4750496703946214, guid: a09c36d9674e75f41a494ce953559f04, type: 3}
      propertyPath: m_LocalPosition.x
      value: -14.031
      objectReference: {fileID: 0}
    - target: {fileID: 4750496703946214, guid: a09c36d9674e75f41a494ce953559f04, type: 3}
      propertyPath: m_LocalPosition.y
      value: 0
      objectReference: {fileID: 0}
    - target: {fileID: 4750496703946214, guid: a09c36d9674e75f41a494ce953559f04, type: 3}
      propertyPath: m_LocalPosition.z
      value: 0
      objectReference: {fileID: 0}
    - target: {fileID: 4750496703946214, guid: a09c36d9674e75f41a494ce953559f04, type: 3}
      propertyPath: m_LocalRotation.x
      value: 0
      objectReference: {fileID: 0}
    - target: {fileID: 4750496703946214, guid: a09c36d9674e75f41a494ce953559f04, type: 3}
      propertyPath: m_LocalRotation.y
      value: 0
      objectReference: {fileID: 0}
    - target: {fileID: 4750496703946214, guid: a09c36d9674e75f41a494ce953559f04, type: 3}
      propertyPath: m_LocalRotation.z
      value: 0
      objectReference: {fileID: 0}
    - target: {fileID: 4750496703946214, guid: a09c36d9674e75f41a494ce953559f04, type: 3}
      propertyPath: m_LocalRotation.w
      value: 1
      objectReference: {fileID: 0}
    - target: {fileID: 4750496703946214, guid: a09c36d9674e75f41a494ce953559f04, type: 3}
      propertyPath: m_RootOrder
      value: 16
      objectReference: {fileID: 0}
    - target: {fileID: 95784980378926814, guid: a09c36d9674e75f41a494ce953559f04,
        type: 3}
      propertyPath: m_Controller
      value: 
      objectReference: {fileID: 9100000, guid: 9119d78ff9999894fb1221a724e0ac54, type: 2}
    m_RemovedComponents: []
  m_SourcePrefab: {fileID: 100100000, guid: a09c36d9674e75f41a494ce953559f04, type: 3}
--- !u!1001 &1590670150
PrefabInstance:
  m_ObjectHideFlags: 0
  serializedVersion: 2
  m_Modification:
    m_TransformParent: {fileID: 0}
    m_Modifications:
    - target: {fileID: 4808819179531652, guid: ce7dbc70b8a277d4fa8e81b8a629f190, type: 3}
      propertyPath: m_LocalPosition.x
      value: 1.14
      objectReference: {fileID: 0}
    - target: {fileID: 4808819179531652, guid: ce7dbc70b8a277d4fa8e81b8a629f190, type: 3}
      propertyPath: m_LocalPosition.y
      value: 0
      objectReference: {fileID: 0}
    - target: {fileID: 4808819179531652, guid: ce7dbc70b8a277d4fa8e81b8a629f190, type: 3}
      propertyPath: m_LocalPosition.z
      value: 0
      objectReference: {fileID: 0}
    - target: {fileID: 4808819179531652, guid: ce7dbc70b8a277d4fa8e81b8a629f190, type: 3}
      propertyPath: m_LocalRotation.x
      value: 0
      objectReference: {fileID: 0}
    - target: {fileID: 4808819179531652, guid: ce7dbc70b8a277d4fa8e81b8a629f190, type: 3}
      propertyPath: m_LocalRotation.y
      value: 0
      objectReference: {fileID: 0}
    - target: {fileID: 4808819179531652, guid: ce7dbc70b8a277d4fa8e81b8a629f190, type: 3}
      propertyPath: m_LocalRotation.z
      value: 0
      objectReference: {fileID: 0}
    - target: {fileID: 4808819179531652, guid: ce7dbc70b8a277d4fa8e81b8a629f190, type: 3}
      propertyPath: m_LocalRotation.w
      value: 1
      objectReference: {fileID: 0}
    - target: {fileID: 4808819179531652, guid: ce7dbc70b8a277d4fa8e81b8a629f190, type: 3}
      propertyPath: m_RootOrder
      value: 38
      objectReference: {fileID: 0}
    - target: {fileID: 137068084419496250, guid: ce7dbc70b8a277d4fa8e81b8a629f190,
        type: 3}
      propertyPath: m_Materials.Array.data[0]
      value: 
      objectReference: {fileID: 2100000, guid: 6d03e424ee7865446bb330749ad2a78d, type: 2}
    m_RemovedComponents: []
  m_SourcePrefab: {fileID: 100100000, guid: ce7dbc70b8a277d4fa8e81b8a629f190, type: 3}
--- !u!1001 &1599420147
PrefabInstance:
  m_ObjectHideFlags: 0
  serializedVersion: 2
  m_Modification:
    m_TransformParent: {fileID: 0}
    m_Modifications:
    - target: {fileID: 1911384272022466, guid: b0a05f04d697c014b9a29c1802c33b7a, type: 3}
      propertyPath: m_IsActive
      value: 1
      objectReference: {fileID: 0}
    - target: {fileID: 4898879440692204, guid: b0a05f04d697c014b9a29c1802c33b7a, type: 3}
      propertyPath: m_LocalPosition.x
      value: -15.031
      objectReference: {fileID: 0}
    - target: {fileID: 4898879440692204, guid: b0a05f04d697c014b9a29c1802c33b7a, type: 3}
      propertyPath: m_LocalPosition.y
      value: 0
      objectReference: {fileID: 0}
    - target: {fileID: 4898879440692204, guid: b0a05f04d697c014b9a29c1802c33b7a, type: 3}
      propertyPath: m_LocalPosition.z
      value: 0
      objectReference: {fileID: 0}
    - target: {fileID: 4898879440692204, guid: b0a05f04d697c014b9a29c1802c33b7a, type: 3}
      propertyPath: m_LocalRotation.x
      value: 0
      objectReference: {fileID: 0}
    - target: {fileID: 4898879440692204, guid: b0a05f04d697c014b9a29c1802c33b7a, type: 3}
      propertyPath: m_LocalRotation.y
      value: 0
      objectReference: {fileID: 0}
    - target: {fileID: 4898879440692204, guid: b0a05f04d697c014b9a29c1802c33b7a, type: 3}
      propertyPath: m_LocalRotation.z
      value: 0
      objectReference: {fileID: 0}
    - target: {fileID: 4898879440692204, guid: b0a05f04d697c014b9a29c1802c33b7a, type: 3}
      propertyPath: m_LocalRotation.w
      value: 1
      objectReference: {fileID: 0}
    - target: {fileID: 4898879440692204, guid: b0a05f04d697c014b9a29c1802c33b7a, type: 3}
      propertyPath: m_RootOrder
      value: 17
      objectReference: {fileID: 0}
    - target: {fileID: 95638046563553580, guid: b0a05f04d697c014b9a29c1802c33b7a,
        type: 3}
      propertyPath: m_Controller
      value: 
      objectReference: {fileID: 9100000, guid: 9119d78ff9999894fb1221a724e0ac54, type: 2}
    m_RemovedComponents: []
  m_SourcePrefab: {fileID: 100100000, guid: b0a05f04d697c014b9a29c1802c33b7a, type: 3}
--- !u!1001 &1622696301
PrefabInstance:
  m_ObjectHideFlags: 0
  serializedVersion: 2
  m_Modification:
    m_TransformParent: {fileID: 0}
    m_Modifications:
    - target: {fileID: 1581350133977244, guid: 03f232cfb90b29147b5813efa12f5083, type: 3}
      propertyPath: m_IsActive
      value: 1
      objectReference: {fileID: 0}
    - target: {fileID: 4498506731201722, guid: 03f232cfb90b29147b5813efa12f5083, type: 3}
      propertyPath: m_LocalPosition.x
      value: -34.031
      objectReference: {fileID: 0}
    - target: {fileID: 4498506731201722, guid: 03f232cfb90b29147b5813efa12f5083, type: 3}
      propertyPath: m_LocalPosition.y
      value: 0
      objectReference: {fileID: 0}
    - target: {fileID: 4498506731201722, guid: 03f232cfb90b29147b5813efa12f5083, type: 3}
      propertyPath: m_LocalPosition.z
      value: 0
      objectReference: {fileID: 0}
    - target: {fileID: 4498506731201722, guid: 03f232cfb90b29147b5813efa12f5083, type: 3}
      propertyPath: m_LocalRotation.x
      value: 0
      objectReference: {fileID: 0}
    - target: {fileID: 4498506731201722, guid: 03f232cfb90b29147b5813efa12f5083, type: 3}
      propertyPath: m_LocalRotation.y
      value: 0
      objectReference: {fileID: 0}
    - target: {fileID: 4498506731201722, guid: 03f232cfb90b29147b5813efa12f5083, type: 3}
      propertyPath: m_LocalRotation.z
      value: 0
      objectReference: {fileID: 0}
    - target: {fileID: 4498506731201722, guid: 03f232cfb90b29147b5813efa12f5083, type: 3}
      propertyPath: m_LocalRotation.w
      value: 1
      objectReference: {fileID: 0}
    - target: {fileID: 4498506731201722, guid: 03f232cfb90b29147b5813efa12f5083, type: 3}
      propertyPath: m_RootOrder
      value: 36
      objectReference: {fileID: 0}
    - target: {fileID: 95089050561349178, guid: 03f232cfb90b29147b5813efa12f5083,
        type: 3}
      propertyPath: m_Controller
      value: 
      objectReference: {fileID: 9100000, guid: 9119d78ff9999894fb1221a724e0ac54, type: 2}
    m_RemovedComponents: []
  m_SourcePrefab: {fileID: 100100000, guid: 03f232cfb90b29147b5813efa12f5083, type: 3}
--- !u!1001 &1628716232
PrefabInstance:
  m_ObjectHideFlags: 0
  serializedVersion: 2
  m_Modification:
    m_TransformParent: {fileID: 0}
    m_Modifications:
    - target: {fileID: 1508135490251076, guid: 4fca8152a13bd7840a78177d98266f8b, type: 3}
      propertyPath: m_IsActive
      value: 1
      objectReference: {fileID: 0}
    - target: {fileID: 4506197558115786, guid: 4fca8152a13bd7840a78177d98266f8b, type: 3}
      propertyPath: m_LocalPosition.x
      value: -22.031
      objectReference: {fileID: 0}
    - target: {fileID: 4506197558115786, guid: 4fca8152a13bd7840a78177d98266f8b, type: 3}
      propertyPath: m_LocalPosition.y
      value: 0
      objectReference: {fileID: 0}
    - target: {fileID: 4506197558115786, guid: 4fca8152a13bd7840a78177d98266f8b, type: 3}
      propertyPath: m_LocalPosition.z
      value: 0
      objectReference: {fileID: 0}
    - target: {fileID: 4506197558115786, guid: 4fca8152a13bd7840a78177d98266f8b, type: 3}
      propertyPath: m_LocalRotation.x
      value: 0
      objectReference: {fileID: 0}
    - target: {fileID: 4506197558115786, guid: 4fca8152a13bd7840a78177d98266f8b, type: 3}
      propertyPath: m_LocalRotation.y
      value: 0
      objectReference: {fileID: 0}
    - target: {fileID: 4506197558115786, guid: 4fca8152a13bd7840a78177d98266f8b, type: 3}
      propertyPath: m_LocalRotation.z
      value: 0
      objectReference: {fileID: 0}
    - target: {fileID: 4506197558115786, guid: 4fca8152a13bd7840a78177d98266f8b, type: 3}
      propertyPath: m_LocalRotation.w
      value: 1
      objectReference: {fileID: 0}
    - target: {fileID: 4506197558115786, guid: 4fca8152a13bd7840a78177d98266f8b, type: 3}
      propertyPath: m_RootOrder
      value: 24
      objectReference: {fileID: 0}
    - target: {fileID: 95727445409690086, guid: 4fca8152a13bd7840a78177d98266f8b,
        type: 3}
      propertyPath: m_Controller
      value: 
      objectReference: {fileID: 9100000, guid: 9119d78ff9999894fb1221a724e0ac54, type: 2}
    m_RemovedComponents: []
  m_SourcePrefab: {fileID: 100100000, guid: 4fca8152a13bd7840a78177d98266f8b, type: 3}
--- !u!1001 &1642429458
PrefabInstance:
  m_ObjectHideFlags: 0
  serializedVersion: 2
  m_Modification:
    m_TransformParent: {fileID: 0}
    m_Modifications:
    - target: {fileID: 1321658202123526, guid: 277b4a847cb8a424ba39deea5d554ee3, type: 3}
      propertyPath: m_IsActive
      value: 1
      objectReference: {fileID: 0}
    - target: {fileID: 4244727015221052, guid: 277b4a847cb8a424ba39deea5d554ee3, type: 3}
      propertyPath: m_LocalPosition.x
      value: -24.031
      objectReference: {fileID: 0}
    - target: {fileID: 4244727015221052, guid: 277b4a847cb8a424ba39deea5d554ee3, type: 3}
      propertyPath: m_LocalPosition.y
      value: 0
      objectReference: {fileID: 0}
    - target: {fileID: 4244727015221052, guid: 277b4a847cb8a424ba39deea5d554ee3, type: 3}
      propertyPath: m_LocalPosition.z
      value: 0
      objectReference: {fileID: 0}
    - target: {fileID: 4244727015221052, guid: 277b4a847cb8a424ba39deea5d554ee3, type: 3}
      propertyPath: m_LocalRotation.x
      value: 0
      objectReference: {fileID: 0}
    - target: {fileID: 4244727015221052, guid: 277b4a847cb8a424ba39deea5d554ee3, type: 3}
      propertyPath: m_LocalRotation.y
      value: 0
      objectReference: {fileID: 0}
    - target: {fileID: 4244727015221052, guid: 277b4a847cb8a424ba39deea5d554ee3, type: 3}
      propertyPath: m_LocalRotation.z
      value: 0
      objectReference: {fileID: 0}
    - target: {fileID: 4244727015221052, guid: 277b4a847cb8a424ba39deea5d554ee3, type: 3}
      propertyPath: m_LocalRotation.w
      value: 1
      objectReference: {fileID: 0}
    - target: {fileID: 4244727015221052, guid: 277b4a847cb8a424ba39deea5d554ee3, type: 3}
      propertyPath: m_RootOrder
      value: 26
      objectReference: {fileID: 0}
    - target: {fileID: 95748408977808204, guid: 277b4a847cb8a424ba39deea5d554ee3,
        type: 3}
      propertyPath: m_Controller
      value: 
      objectReference: {fileID: 9100000, guid: 9119d78ff9999894fb1221a724e0ac54, type: 2}
    m_RemovedComponents: []
  m_SourcePrefab: {fileID: 100100000, guid: 277b4a847cb8a424ba39deea5d554ee3, type: 3}
--- !u!1001 &1670393122
PrefabInstance:
  m_ObjectHideFlags: 0
  serializedVersion: 2
  m_Modification:
    m_TransformParent: {fileID: 0}
    m_Modifications:
    - target: {fileID: 4872382679063442, guid: 10c5537e0d3282544b4c5948d4be85ef, type: 3}
      propertyPath: m_LocalPosition.x
      value: 0
      objectReference: {fileID: 0}
    - target: {fileID: 4872382679063442, guid: 10c5537e0d3282544b4c5948d4be85ef, type: 3}
      propertyPath: m_LocalPosition.y
      value: 0
      objectReference: {fileID: 0}
    - target: {fileID: 4872382679063442, guid: 10c5537e0d3282544b4c5948d4be85ef, type: 3}
      propertyPath: m_LocalPosition.z
      value: 0
      objectReference: {fileID: 0}
    - target: {fileID: 4872382679063442, guid: 10c5537e0d3282544b4c5948d4be85ef, type: 3}
      propertyPath: m_LocalRotation.x
      value: 0
      objectReference: {fileID: 0}
    - target: {fileID: 4872382679063442, guid: 10c5537e0d3282544b4c5948d4be85ef, type: 3}
      propertyPath: m_LocalRotation.y
      value: 0
      objectReference: {fileID: 0}
    - target: {fileID: 4872382679063442, guid: 10c5537e0d3282544b4c5948d4be85ef, type: 3}
      propertyPath: m_LocalRotation.z
      value: 0
      objectReference: {fileID: 0}
    - target: {fileID: 4872382679063442, guid: 10c5537e0d3282544b4c5948d4be85ef, type: 3}
      propertyPath: m_LocalRotation.w
      value: 1
      objectReference: {fileID: 0}
    - target: {fileID: 4872382679063442, guid: 10c5537e0d3282544b4c5948d4be85ef, type: 3}
      propertyPath: m_RootOrder
      value: 2
      objectReference: {fileID: 0}
    - target: {fileID: 95153807452689546, guid: 10c5537e0d3282544b4c5948d4be85ef,
        type: 3}
      propertyPath: m_Controller
      value: 
      objectReference: {fileID: 9100000, guid: 9119d78ff9999894fb1221a724e0ac54, type: 2}
    m_RemovedComponents: []
  m_SourcePrefab: {fileID: 100100000, guid: 10c5537e0d3282544b4c5948d4be85ef, type: 3}
--- !u!1001 &1679566201
PrefabInstance:
  m_ObjectHideFlags: 0
  serializedVersion: 2
  m_Modification:
    m_TransformParent: {fileID: 0}
    m_Modifications:
    - target: {fileID: 1258619375881096, guid: e15d3738897cec74d845fa35b2585484, type: 3}
      propertyPath: m_IsActive
      value: 1
      objectReference: {fileID: 0}
    - target: {fileID: 4220025032080636, guid: e15d3738897cec74d845fa35b2585484, type: 3}
      propertyPath: m_LocalPosition.x
      value: -7.031
      objectReference: {fileID: 0}
    - target: {fileID: 4220025032080636, guid: e15d3738897cec74d845fa35b2585484, type: 3}
      propertyPath: m_LocalPosition.y
      value: 0
      objectReference: {fileID: 0}
    - target: {fileID: 4220025032080636, guid: e15d3738897cec74d845fa35b2585484, type: 3}
      propertyPath: m_LocalPosition.z
      value: 0
      objectReference: {fileID: 0}
    - target: {fileID: 4220025032080636, guid: e15d3738897cec74d845fa35b2585484, type: 3}
      propertyPath: m_LocalRotation.x
      value: 0
      objectReference: {fileID: 0}
    - target: {fileID: 4220025032080636, guid: e15d3738897cec74d845fa35b2585484, type: 3}
      propertyPath: m_LocalRotation.y
      value: 0
      objectReference: {fileID: 0}
    - target: {fileID: 4220025032080636, guid: e15d3738897cec74d845fa35b2585484, type: 3}
      propertyPath: m_LocalRotation.z
      value: 0
      objectReference: {fileID: 0}
    - target: {fileID: 4220025032080636, guid: e15d3738897cec74d845fa35b2585484, type: 3}
      propertyPath: m_LocalRotation.w
      value: 1
      objectReference: {fileID: 0}
    - target: {fileID: 4220025032080636, guid: e15d3738897cec74d845fa35b2585484, type: 3}
      propertyPath: m_RootOrder
      value: 9
      objectReference: {fileID: 0}
    - target: {fileID: 95098269890810340, guid: e15d3738897cec74d845fa35b2585484,
        type: 3}
      propertyPath: m_Controller
      value: 
      objectReference: {fileID: 9100000, guid: 9119d78ff9999894fb1221a724e0ac54, type: 2}
    - target: {fileID: 137970351151135640, guid: e15d3738897cec74d845fa35b2585484,
        type: 3}
      propertyPath: m_Materials.Array.data[0]
      value: 
      objectReference: {fileID: 2100000, guid: 878738044afee624a879602d5c3ec8e8, type: 2}
    m_RemovedComponents: []
  m_SourcePrefab: {fileID: 100100000, guid: e15d3738897cec74d845fa35b2585484, type: 3}
--- !u!1001 &1744266245
PrefabInstance:
  m_ObjectHideFlags: 0
  serializedVersion: 2
  m_Modification:
    m_TransformParent: {fileID: 0}
    m_Modifications:
    - target: {fileID: 1145364090065650, guid: b661553bcb8b848449ef8cc9489f4f7a, type: 3}
      propertyPath: m_IsActive
      value: 1
      objectReference: {fileID: 0}
    - target: {fileID: 4257029251087842, guid: b661553bcb8b848449ef8cc9489f4f7a, type: 3}
      propertyPath: m_LocalPosition.x
      value: -30.031
      objectReference: {fileID: 0}
    - target: {fileID: 4257029251087842, guid: b661553bcb8b848449ef8cc9489f4f7a, type: 3}
      propertyPath: m_LocalPosition.y
      value: 0
      objectReference: {fileID: 0}
    - target: {fileID: 4257029251087842, guid: b661553bcb8b848449ef8cc9489f4f7a, type: 3}
      propertyPath: m_LocalPosition.z
      value: 0
      objectReference: {fileID: 0}
    - target: {fileID: 4257029251087842, guid: b661553bcb8b848449ef8cc9489f4f7a, type: 3}
      propertyPath: m_LocalRotation.x
      value: 0
      objectReference: {fileID: 0}
    - target: {fileID: 4257029251087842, guid: b661553bcb8b848449ef8cc9489f4f7a, type: 3}
      propertyPath: m_LocalRotation.y
      value: 0
      objectReference: {fileID: 0}
    - target: {fileID: 4257029251087842, guid: b661553bcb8b848449ef8cc9489f4f7a, type: 3}
      propertyPath: m_LocalRotation.z
      value: 0
      objectReference: {fileID: 0}
    - target: {fileID: 4257029251087842, guid: b661553bcb8b848449ef8cc9489f4f7a, type: 3}
      propertyPath: m_LocalRotation.w
      value: 1
      objectReference: {fileID: 0}
    - target: {fileID: 4257029251087842, guid: b661553bcb8b848449ef8cc9489f4f7a, type: 3}
      propertyPath: m_RootOrder
      value: 32
      objectReference: {fileID: 0}
    - target: {fileID: 95616628896205284, guid: b661553bcb8b848449ef8cc9489f4f7a,
        type: 3}
      propertyPath: m_Controller
      value: 
      objectReference: {fileID: 9100000, guid: 9119d78ff9999894fb1221a724e0ac54, type: 2}
    m_RemovedComponents: []
  m_SourcePrefab: {fileID: 100100000, guid: b661553bcb8b848449ef8cc9489f4f7a, type: 3}
--- !u!1001 &1804933037
PrefabInstance:
  m_ObjectHideFlags: 0
  serializedVersion: 2
  m_Modification:
    m_TransformParent: {fileID: 0}
    m_Modifications:
    - target: {fileID: 1816053417719756, guid: 3d1c589fc5777f74bae9884427692506, type: 3}
      propertyPath: m_IsActive
      value: 1
      objectReference: {fileID: 0}
    - target: {fileID: 4714063171897028, guid: 3d1c589fc5777f74bae9884427692506, type: 3}
      propertyPath: m_LocalPosition.x
      value: -33.031
      objectReference: {fileID: 0}
    - target: {fileID: 4714063171897028, guid: 3d1c589fc5777f74bae9884427692506, type: 3}
      propertyPath: m_LocalPosition.y
      value: 0
      objectReference: {fileID: 0}
    - target: {fileID: 4714063171897028, guid: 3d1c589fc5777f74bae9884427692506, type: 3}
      propertyPath: m_LocalPosition.z
      value: 0
      objectReference: {fileID: 0}
    - target: {fileID: 4714063171897028, guid: 3d1c589fc5777f74bae9884427692506, type: 3}
      propertyPath: m_LocalRotation.x
      value: 0
      objectReference: {fileID: 0}
    - target: {fileID: 4714063171897028, guid: 3d1c589fc5777f74bae9884427692506, type: 3}
      propertyPath: m_LocalRotation.y
      value: 0
      objectReference: {fileID: 0}
    - target: {fileID: 4714063171897028, guid: 3d1c589fc5777f74bae9884427692506, type: 3}
      propertyPath: m_LocalRotation.z
      value: 0
      objectReference: {fileID: 0}
    - target: {fileID: 4714063171897028, guid: 3d1c589fc5777f74bae9884427692506, type: 3}
      propertyPath: m_LocalRotation.w
      value: 1
      objectReference: {fileID: 0}
    - target: {fileID: 4714063171897028, guid: 3d1c589fc5777f74bae9884427692506, type: 3}
      propertyPath: m_RootOrder
      value: 35
      objectReference: {fileID: 0}
    - target: {fileID: 95184218405635662, guid: 3d1c589fc5777f74bae9884427692506,
        type: 3}
      propertyPath: m_Controller
      value: 
      objectReference: {fileID: 9100000, guid: 9119d78ff9999894fb1221a724e0ac54, type: 2}
    m_RemovedComponents: []
  m_SourcePrefab: {fileID: 100100000, guid: 3d1c589fc5777f74bae9884427692506, type: 3}
--- !u!1001 &2070514001
PrefabInstance:
  m_ObjectHideFlags: 0
  serializedVersion: 2
  m_Modification:
    m_TransformParent: {fileID: 0}
    m_Modifications:
    - target: {fileID: 1328167256303300, guid: cb04aaf2565cd514ea0cd707372e6080, type: 3}
      propertyPath: m_IsActive
      value: 1
      objectReference: {fileID: 0}
    - target: {fileID: 4288339877312436, guid: cb04aaf2565cd514ea0cd707372e6080, type: 3}
      propertyPath: m_LocalPosition.x
      value: -35
      objectReference: {fileID: 0}
    - target: {fileID: 4288339877312436, guid: cb04aaf2565cd514ea0cd707372e6080, type: 3}
      propertyPath: m_LocalPosition.y
      value: 0
      objectReference: {fileID: 0}
    - target: {fileID: 4288339877312436, guid: cb04aaf2565cd514ea0cd707372e6080, type: 3}
      propertyPath: m_LocalPosition.z
      value: 0
      objectReference: {fileID: 0}
    - target: {fileID: 4288339877312436, guid: cb04aaf2565cd514ea0cd707372e6080, type: 3}
      propertyPath: m_LocalRotation.x
      value: 0
      objectReference: {fileID: 0}
    - target: {fileID: 4288339877312436, guid: cb04aaf2565cd514ea0cd707372e6080, type: 3}
      propertyPath: m_LocalRotation.y
      value: 0
      objectReference: {fileID: 0}
    - target: {fileID: 4288339877312436, guid: cb04aaf2565cd514ea0cd707372e6080, type: 3}
      propertyPath: m_LocalRotation.z
      value: 0
      objectReference: {fileID: 0}
    - target: {fileID: 4288339877312436, guid: cb04aaf2565cd514ea0cd707372e6080, type: 3}
      propertyPath: m_LocalRotation.w
      value: 1
      objectReference: {fileID: 0}
    - target: {fileID: 4288339877312436, guid: cb04aaf2565cd514ea0cd707372e6080, type: 3}
      propertyPath: m_RootOrder
      value: 37
      objectReference: {fileID: 0}
    - target: {fileID: 95665376237343180, guid: cb04aaf2565cd514ea0cd707372e6080,
        type: 3}
      propertyPath: m_Controller
      value: 
      objectReference: {fileID: 9100000, guid: 9119d78ff9999894fb1221a724e0ac54, type: 2}
    m_RemovedComponents: []
  m_SourcePrefab: {fileID: 100100000, guid: cb04aaf2565cd514ea0cd707372e6080, type: 3}
--- !u!1001 &2096213313
PrefabInstance:
  m_ObjectHideFlags: 0
  serializedVersion: 2
  m_Modification:
    m_TransformParent: {fileID: 0}
    m_Modifications:
    - target: {fileID: 1659032930485048, guid: 29575d7a83c844447a18c331de49439d, type: 3}
      propertyPath: m_IsActive
      value: 1
      objectReference: {fileID: 0}
    - target: {fileID: 4310584163084980, guid: 29575d7a83c844447a18c331de49439d, type: 3}
      propertyPath: m_LocalPosition.x
      value: -26.031
      objectReference: {fileID: 0}
    - target: {fileID: 4310584163084980, guid: 29575d7a83c844447a18c331de49439d, type: 3}
      propertyPath: m_LocalPosition.y
      value: 0
      objectReference: {fileID: 0}
    - target: {fileID: 4310584163084980, guid: 29575d7a83c844447a18c331de49439d, type: 3}
      propertyPath: m_LocalPosition.z
      value: 0
      objectReference: {fileID: 0}
    - target: {fileID: 4310584163084980, guid: 29575d7a83c844447a18c331de49439d, type: 3}
      propertyPath: m_LocalRotation.x
      value: 0
      objectReference: {fileID: 0}
    - target: {fileID: 4310584163084980, guid: 29575d7a83c844447a18c331de49439d, type: 3}
      propertyPath: m_LocalRotation.y
      value: 0
      objectReference: {fileID: 0}
    - target: {fileID: 4310584163084980, guid: 29575d7a83c844447a18c331de49439d, type: 3}
      propertyPath: m_LocalRotation.z
      value: 0
      objectReference: {fileID: 0}
    - target: {fileID: 4310584163084980, guid: 29575d7a83c844447a18c331de49439d, type: 3}
      propertyPath: m_LocalRotation.w
      value: 1
      objectReference: {fileID: 0}
    - target: {fileID: 4310584163084980, guid: 29575d7a83c844447a18c331de49439d, type: 3}
      propertyPath: m_RootOrder
      value: 28
      objectReference: {fileID: 0}
    - target: {fileID: 95972788739822126, guid: 29575d7a83c844447a18c331de49439d,
        type: 3}
      propertyPath: m_Controller
      value: 
      objectReference: {fileID: 9100000, guid: 9119d78ff9999894fb1221a724e0ac54, type: 2}
    m_RemovedComponents: []
  m_SourcePrefab: {fileID: 100100000, guid: 29575d7a83c844447a18c331de49439d, type: 3}
--- !u!1001 &2133154399
PrefabInstance:
  m_ObjectHideFlags: 0
  serializedVersion: 2
  m_Modification:
    m_TransformParent: {fileID: 0}
    m_Modifications:
    - target: {fileID: 1814099244682636, guid: 4cb71591b37de994fbdc51849d385d41, type: 3}
      propertyPath: m_IsActive
      value: 1
      objectReference: {fileID: 0}
    - target: {fileID: 4831272961046130, guid: 4cb71591b37de994fbdc51849d385d41, type: 3}
      propertyPath: m_LocalPosition.x
      value: -19.031
      objectReference: {fileID: 0}
    - target: {fileID: 4831272961046130, guid: 4cb71591b37de994fbdc51849d385d41, type: 3}
      propertyPath: m_LocalPosition.y
      value: 0
      objectReference: {fileID: 0}
    - target: {fileID: 4831272961046130, guid: 4cb71591b37de994fbdc51849d385d41, type: 3}
      propertyPath: m_LocalPosition.z
      value: 0
      objectReference: {fileID: 0}
    - target: {fileID: 4831272961046130, guid: 4cb71591b37de994fbdc51849d385d41, type: 3}
      propertyPath: m_LocalRotation.x
      value: 0
      objectReference: {fileID: 0}
    - target: {fileID: 4831272961046130, guid: 4cb71591b37de994fbdc51849d385d41, type: 3}
      propertyPath: m_LocalRotation.y
      value: 0
      objectReference: {fileID: 0}
    - target: {fileID: 4831272961046130, guid: 4cb71591b37de994fbdc51849d385d41, type: 3}
      propertyPath: m_LocalRotation.z
      value: 0
      objectReference: {fileID: 0}
    - target: {fileID: 4831272961046130, guid: 4cb71591b37de994fbdc51849d385d41, type: 3}
      propertyPath: m_LocalRotation.w
      value: 1
      objectReference: {fileID: 0}
    - target: {fileID: 4831272961046130, guid: 4cb71591b37de994fbdc51849d385d41, type: 3}
      propertyPath: m_RootOrder
      value: 21
      objectReference: {fileID: 0}
    - target: {fileID: 95105737846867092, guid: 4cb71591b37de994fbdc51849d385d41,
        type: 3}
      propertyPath: m_Controller
      value: 
      objectReference: {fileID: 9100000, guid: 9119d78ff9999894fb1221a724e0ac54, type: 2}
    - target: {fileID: 137050401385750344, guid: 4cb71591b37de994fbdc51849d385d41,
        type: 3}
      propertyPath: m_Materials.Array.data[0]
      value: 
      objectReference: {fileID: 2100000, guid: 878738044afee624a879602d5c3ec8e8, type: 2}
    m_RemovedComponents: []
  m_SourcePrefab: {fileID: 100100000, guid: 4cb71591b37de994fbdc51849d385d41, type: 3}
